[gd_scene load_steps=10 format=2]

[ext_resource path="res://spaces/stages/base_stage.tscn" type="PackedScene" id=1]
[ext_resource path="res://spaces/stages/scenery/Drip.tscn" type="PackedScene" id=2]
[ext_resource path="res://spaces/stages/scenery/Spider.tscn" type="PackedScene" id=3]
[ext_resource path="res://spaces/stages/scenery/torch.tscn" type="PackedScene" id=4]
[ext_resource path="res://spaces/stages/new_stages/stage_04/main.tscn" type="PackedScene" id=5]
[ext_resource path="res://actors/props/block/block.tscn" type="PackedScene" id=6]
[ext_resource path="res://actors/props/spikes/spikes.tscn" type="PackedScene" id=7]
[ext_resource path="res://assets/fonts/yoster-island/yoster.ttf" type="DynamicFontData" id=8]

[sub_resource type="DynamicFont" id=1]
size = 12
font_data = ExtResource( 8 )

[node name="space" index="0" instance=ExtResource( 1 )]

[node name="Background" parent="." index="0"]
tile_data = PoolIntArray( -327689, 0, 0, -327688, 0, 0, -327687, 1, 0, -327686, 1, 0, -327685, 0, 0, -327684, 2, 0, -327683, 0, 0, -327682, 0, 0, -327681, 0, 0, -393216, 0, 0, -393215, 0, 0, -393214, 0, 0, -393213, 0, 0, -393212, 0, 0, -393211, 0, 0, -393210, 0, 0, -393209, 17, 0, -393208, 0, 0, -393207, 0, 0, -393206, 2, 0, -393205, 0, 0, -393204, 0, 0, -393203, 0, 0, -393202, 0, 0, -393201, 0, 0, -393200, 0, 0, -393199, 0, 0, -393198, 0, 0, -393197, 0, 0, -393196, 0, 0, -393195, 0, 0, -393194, 0, 0, -393193, 0, 0, -393192, 0, 0, -393191, 1, 0, -393190, 0, 0, -393189, 0, 0, -393188, 0, 0, -393187, 0, 0, -393186, 0, 0, -393185, 0, 0, -393184, 0, 0, -393183, 0, 0, -393182, 0, 0, -393181, 0, 0, -393180, 0, 0, -393179, 0, 0, -262153, 0, 0, -262152, 0, 0, -262151, 1, 0, -262150, 0, 0, -262149, 0, 0, -262148, 0, 0, -262147, 1, 0, -262146, 0, 0, -262145, 0, 0, -327680, 0, 0, -327679, 0, 0, -327678, 0, 0, -327677, 1, 0, -327676, 1, 0, -327675, 1, 0, -327674, 0, 0, -327673, 14, 0, -327672, 0, 0, -327671, 0, 0, -327670, 2, 0, -327669, 0, 0, -327668, 0, 0, -327667, 0, 0, -327666, 0, 0, -327665, 0, 0, -327664, 17, 0, -327663, 0, 0, -327662, 0, 0, -327661, 0, 0, -327660, 0, 0, -327659, 0, 0, -327658, 0, 0, -327657, 0, 0, -327656, 0, 0, -327655, 0, 0, -327654, 0, 0, -327653, 17, 0, -327652, 0, 0, -327651, 0, 0, -327650, 0, 0, -327649, 0, 0, -327648, 0, 0, -327647, 2, 0, -327646, 0, 0, -327645, 0, 0, -327644, 0, 0, -327643, 0, 0, -196617, 1, 0, -196616, 1, 0, -196615, 1, 0, -196614, 17, 0, -196613, 14, 0, -196612, 1, 0, -196611, 1, 0, -196610, 1, 0, -196609, 1, 0, -262144, 2, 0, -262143, 1, 0, -262142, 2, 0, -262141, 1, 0, -262140, 1, 0, -262139, 1, 0, -262138, 1, 0, -262137, 13, 0, -262136, 1, 0, -262135, 1, 0, -262134, 2, 0, -262133, 0, 0, -262132, 1, 0, -262131, 0, 0, -262130, 0, 0, -262129, 1, 0, -262128, 2, 0, -262127, 2, 0, -262126, 0, 0, -262125, 2, 0, -262124, 0, 0, -262123, 0, 0, -262122, 0, 0, -262121, 0, 0, -262120, 0, 0, -262119, 0, 0, -262118, 1, 0, -262117, 0, 0, -262116, 0, 0, -262115, 0, 0, -262114, 0, 0, -262113, 2, 0, -262112, 0, 0, -262111, 0, 0, -262110, 0, 0, -262109, 0, 0, -262108, 0, 0, -262107, 0, 0, -131081, 1, 0, -131080, 1, 0, -131079, 14, 0, -131078, 1, 0, -131077, 15, 0, -131076, 1, 0, -131075, 1, 0, -131074, 17, 0, -131073, 1, 0, -196608, 1, 0, -196607, 1, 0, -196606, 14, 0, -196605, 1, 0, -196604, 2, 0, -196603, 1, 0, -196602, 1, 0, -196601, 16, 0, -196600, 1, 0, -196599, 1, 0, -196598, 17, 0, -196597, 0, 0, -196596, 2, 0, -196595, 1, 0, -196594, 1, 0, -196593, 1, 0, -196592, 0, 0, -196591, 0, 0, -196590, 0, 0, -196589, 1, 0, -196588, 1, 0, -196587, 0, 0, -196586, 0, 0, -196585, 2, 0, -196584, 0, 0, -196583, 0, 0, -196582, 0, 0, -196581, 0, 0, -196580, 1, 0, -196579, 0, 0, -196578, 0, 0, -196577, 0, 0, -196576, 0, 0, -196575, 0, 0, -196574, 0, 0, -196573, 0, 0, -196572, 0, 0, -196571, 0, 0, -65545, 1, 0, -65544, 1, 0, -65543, 16, 0, -65542, 1, 0, -65541, 16, 0, -65540, 1, 0, -65539, 1, 0, -65538, 1, 0, -65537, 1, 0, -131072, 2, 0, -131071, 1, 0, -131070, 13, 0, -131069, 1, 0, -131068, 1, 0, -131067, 17, 0, -131066, 1, 0, -131065, 15, 0, -131064, 1, 0, -131063, 1, 0, -131062, 2, 0, -131061, 0, 0, -131060, 0, 0, -131059, 0, 0, -131058, 0, 0, -131057, 0, 0, -131056, 1, 0, -131055, 1, 0, -131054, 0, 0, -131053, 0, 0, -131052, 1, 0, -131051, 1, 0, -131050, 1, 0, -131049, 17, 0, -131048, 0, 0, -131047, 1, 0, -131046, 0, 0, -131045, 0, 0, -131044, 0, 0, -131043, 0, 0, -131042, 0, 0, -131041, 0, 0, -131040, 0, 0, -131039, 0, 0, -131038, 0, 0, -131037, 0, 0, -131036, 0, 0, -131035, 0, 0, -131034, 0, 0, -131033, 0, 0, -9, 1, 0, -8, 17, 0, -7, 15, 0, -6, 1, 0, -5, 13, 0, -4, 14, 0, -3, 1, 0, -2, 1, 0, -1, 1, 0, -65536, 1, 0, -65535, 1, 0, -65534, 13, 0, -65533, 1, 0, -65532, 1, 0, -65531, 1, 0, -65530, 1, 0, -65529, 16, 0, -65528, 0, 0, -65527, 0, 0, -65526, 2, 0, -65525, 1, 0, -65524, 17, 0, -65523, 2, 0, -65522, 0, 0, -65521, 0, 0, -65520, 1, 0, -65519, 17, 0, -65518, 0, 0, -65517, 1, 0, -65516, 1, 0, -65515, 1, 0, -65514, 1, 0, -65513, 1, 0, -65512, 1, 0, -65511, 1, 0, -65510, 2, 0, -65509, 0, 0, -65508, 0, 0, -65507, 2, 0, -65506, 2, 0, -65505, 2, 0, -65504, 2, 0, -65503, 2, 0, -65502, 0, 0, -65501, 0, 0, -65500, 0, 0, -65499, 0, 0, -65498, 0, 0, -65497, 0, 0, 65527, 1, 0, 65528, 1, 0, 65529, 16, 0, 65530, 1, 0, 65531, 16, 0, 65532, 15, 0, 65533, 1, 0, 65534, 1, 0, 65535, 1, 0, 0, 1, 0, 1, 1, 0, 2, 16, 0, 3, 1, 0, 4, 1, 0, 5, 1, 0, 6, 14, 0, 7, 13, 0, 8, 0, 0, 9, 0, 0, 10, 2, 0, 11, 14, 0, 12, 0, 0, 13, 0, 0, 14, 0, 0, 15, 0, 0, 16, 0, 0, 17, 0, 0, 18, 1, 0, 19, 1, 0, 20, 1, 0, 21, 1, 0, 22, 0, 0, 23, 0, 0, 24, 0, 0, 25, 0, 0, 26, 0, 0, 27, 0, 0, 28, 0, 0, 29, 0, 0, 30, 0, 0, 31, 0, 0, 32, 0, 0, 33, 0, 0, 34, 0, 0, 35, 0, 0, 36, 0, 0, 37, 0, 0, 38, 0, 0, 39, 0, 0, 65542, 0, 0, 65543, 2, 0, 65544, 2, 0, 65545, 0, 0, 65546, 0, 0, 65547, 15, 0, 65548, 0, 0, 65549, 0, 0, 65550, 0, 0, 65551, 1, 0, 65552, 1, 0, 65553, 0, 0, 65554, 0, 0, 65555, 0, 0, 65556, 1, 0, 65557, 0, 0, 65558, 0, 0, 65559, 0, 0, 65560, 0, 0, 65561, 0, 0, 65562, 0, 0, 65563, 0, 0, 65564, 0, 0, 65565, 2, 0, 65566, 0, 0, 65567, 0, 0, 65568, 0, 0, 65569, 0, 0, 65570, 0, 0, 65571, 0, 0, 65572, 0, 0, 65573, 0, 0, 65574, 0, 0, 131079, 2, 0, 131080, 2, 0, 131081, 0, 0, 131082, 0, 0, 131085, 0, 0, 131086, 2, 0, 131087, 0, 0, 131088, 1, 0, 131089, 0, 0, 131090, 0, 0, 131091, 0, 0, 131092, 0, 0, 131093, 0, 0, 131094, 14, 0, 131095, 0, 0, 131096, 0, 0, 131097, 1, 0, 131098, 0, 0, 131099, 0, 0, 131100, 0, 0, 131101, 0, 0, 131102, 0, 0, 131103, 0, 0, 131104, 0, 0, 131105, 0, 0, 131106, 0, 0, 131107, 0, 0, 131108, 0, 0, 131109, 0, 0, 131110, 0, 0, 196615, 2, 0, 196616, 2, 0, 196617, 2, 0, 196618, 2, 0, 196619, 2, 0, 196621, 14, 0, 196622, 0, 0, 196623, 0, 0, 196624, 0, 0, 196625, 0, 0, 196626, 0, 0, 196627, 0, 0, 196628, 0, 0, 196629, 14, 0, 196630, 13, 0, 196631, 0, 0, 196632, 0, 0, 196633, 0, 0, 196634, 2, 0, 196635, 0, 0, 196636, 0, 0, 196637, 0, 0, 196638, 0, 0, 196639, 0, 0, 196640, 0, 0, 196641, 0, 0, 196642, 0, 0, 196643, 0, 0, 196644, 0, 0, 196645, 0, 0, 262151, 2, 0, 262152, 2, 0, 262153, 2, 0, 262154, 2, 0, 262155, 2, 0, 262157, 15, 0, 262158, 1, 0, 262159, 0, 0, 262160, 2, 0, 262161, 2, 0, 262162, 2, 0, 262163, 2, 0, 262164, 0, 0, 262165, 15, 0, 262166, 16, 0, 262167, 0, 0, 262168, 2, 0, 262169, 1, 0, 262170, 0, 0, 262171, 0, 0, 262172, 0, 0, 262173, 0, 0, 262174, 0, 0, 262175, 0, 0, 262176, 0, 0, 262177, 0, 0, 262178, 0, 0, 262179, 0, 0, 262180, 0, 0, 262181, 0, 0, 327688, 2, 0, 327693, 15, 0, 327694, 1, 0, 327695, 0, 0, 327696, 2, 0, 327697, 2, 0, 327698, 2, 0, 327699, 2, 0, 327700, 0, 0, 327701, 16, 0, 327702, 16, 0, 327703, 0, 0, 327704, 0, 0, 327705, 1, 0, 327706, 1, 0, 327707, 0, 0, 327708, 0, 0, 327709, 14, 0, 327710, 0, 0, 327711, 0, 0, 327712, 0, 0, 327713, 0, 0, 327714, 0, 0, 327715, 0, 0, 327716, 0, 0, 327717, 0, 0, 393229, 16, 0, 393230, 0, 0, 393231, 0, 0, 393232, 2, 0, 393233, 2, 0, 393234, 2, 0, 393235, 2, 0, 393236, 0, 0, 393237, 13, 0, 393238, 15, 0, 393239, 0, 0, 393240, 0, 0, 393241, 0, 0, 393242, 0, 0, 393243, 0, 0, 393244, 0, 0, 393245, 15, 0, 393246, 0, 0, 393247, 0, 0, 393248, 0, 0, 393249, 0, 0, 393250, 0, 0, 393251, 0, 0, 393252, 0, 0, 393253, 0, 0, 458781, 0, 0, 458782, 0, 0, 458783, 0, 0, 458784, 0, 0, 458785, 0, 0, 458786, 0, 0, 458787, 0, 0, 458788, 0, 0, 458789, 0, 0 )

[node name="Ground" parent="." index="1"]
tile_data = PoolIntArray( -720908, 0, 196612, -720907, 0, 131081, -720906, 0, 131081, -720905, 0, 131081, -720904, 0, 131081, -720903, 0, 131081, -720902, 0, 131081, -720901, 0, 131081, -720900, 0, 131081, -720899, 0, 131081, -720898, 0, 131081, -720897, 0, 131081, -786432, 0, 131081, -786431, 0, 131081, -786430, 0, 131081, -786429, 0, 131081, -786428, 0, 131081, -786427, 0, 131081, -786426, 0, 131081, -786425, 0, 131081, -786424, 0, 131081, -786423, 0, 131081, -786422, 0, 131081, -786421, 0, 131081, -786420, 0, 131081, -786419, 0, 131081, -786418, 0, 131081, -786417, 0, 131081, -786416, 0, 131081, -786415, 0, 131081, -786414, 0, 131081, -786413, 0, 131081, -786412, 0, 131081, -786411, 0, 131081, -786410, 0, 131081, -786409, 0, 131081, -786408, 0, 131081, -786407, 0, 131081, -786406, 0, 131081, -786405, 0, 131081, -786404, 0, 131081, -786403, 0, 131081, -786402, 0, 131081, -786401, 0, 131081, -786400, 0, 131081, -786399, 0, 131081, -786398, 0, 131081, -786397, 0, 131081, -786396, 0, 131081, -786395, 0, 131081, -786394, 0, 131081, -786393, 0, 131081, -786392, 0, 131081, -786391, 0, 131081, -786390, 0, 196610, -655372, 0, 196608, -655371, 0, 327681, -655370, 0, 327681, -655369, 0, 327681, -655368, 0, 327681, -655367, 0, 327681, -655366, 0, 327681, -655365, 0, 327681, -655364, 0, 327681, -655363, 0, 327681, -655362, 0, 327681, -655361, 0, 327681, -720896, 0, 327681, -720895, 0, 327681, -720894, 0, 327681, -720893, 0, 327681, -720892, 0, 327681, -720891, 0, 327681, -720890, 0, 327681, -720889, 0, 327681, -720888, 0, 327681, -720887, 0, 327681, -720886, 0, 327681, -720885, 0, 327681, -720884, 0, 327681, -720883, 0, 327681, -720882, 0, 327681, -720881, 0, 327681, -720880, 0, 327681, -720879, 0, 327681, -720878, 0, 327681, -720877, 0, 327681, -720876, 0, 327681, -720875, 0, 327681, -720874, 0, 327681, -720873, 0, 327681, -720872, 0, 327681, -720871, 0, 327681, -720870, 0, 327681, -720869, 0, 327681, -720868, 0, 327681, -720867, 0, 327681, -720866, 0, 327681, -720865, 0, 327681, -720864, 0, 327681, -720863, 0, 327681, -720862, 0, 327681, -720861, 0, 327681, -720860, 0, 327681, -720859, 0, 327681, -720858, 0, 327681, -720857, 0, 327681, -720856, 0, 327681, -720855, 0, 327681, -720854, 0, 131080, -589836, 0, 196608, -589835, 0, 327681, -589834, 0, 327681, -589833, 0, 327681, -589832, 0, 327681, -589831, 0, 327681, -589830, 0, 327681, -589829, 0, 327681, -589828, 0, 327681, -589827, 0, 327681, -589826, 0, 327681, -589825, 0, 327681, -655360, 0, 327681, -655359, 0, 327681, -655358, 0, 327681, -655357, 0, 327681, -655356, 0, 327681, -655355, 0, 327681, -655354, 0, 327681, -655353, 0, 327681, -655352, 0, 327681, -655351, 0, 327681, -655350, 0, 327681, -655349, 0, 327681, -655348, 0, 327681, -655347, 0, 327681, -655346, 0, 327681, -655345, 0, 327681, -655344, 0, 327681, -655343, 0, 327681, -655342, 0, 327681, -655341, 0, 327681, -655340, 0, 327681, -655339, 0, 327681, -655338, 0, 327681, -655337, 0, 327681, -655336, 0, 327681, -655335, 0, 327681, -655334, 0, 327681, -655333, 0, 327681, -655332, 0, 327681, -655331, 0, 327681, -655330, 0, 327681, -655329, 0, 327681, -655328, 0, 327681, -655327, 0, 327681, -655326, 0, 327681, -655325, 0, 327681, -655324, 0, 327681, -655323, 0, 327681, -655322, 0, 327681, -655321, 0, 327681, -655320, 0, 327681, -655319, 0, 327681, -655318, 0, 131080, -524300, 0, 196608, -524299, 0, 327681, -524298, 0, 327681, -524297, 0, 327681, -524296, 0, 327681, -524295, 0, 327681, -524294, 0, 327681, -524293, 0, 327681, -524292, 0, 327681, -524291, 0, 327681, -524290, 0, 327681, -524289, 0, 327681, -589824, 0, 327681, -589823, 0, 327681, -589822, 0, 327681, -589821, 0, 327681, -589820, 0, 327681, -589819, 0, 327681, -589818, 0, 327681, -589817, 0, 327681, -589816, 0, 327681, -589815, 0, 327681, -589814, 0, 327681, -589813, 0, 327681, -589812, 0, 327681, -589811, 0, 327681, -589810, 0, 327681, -589809, 0, 327681, -589808, 0, 327681, -589807, 0, 327681, -589806, 0, 327681, -589805, 0, 327681, -589804, 0, 327681, -589803, 0, 327681, -589802, 0, 327681, -589801, 0, 327681, -589800, 0, 327681, -589799, 0, 327681, -589798, 0, 327681, -589797, 0, 327681, -589796, 0, 327681, -589795, 0, 327681, -589794, 0, 327681, -589793, 0, 327681, -589792, 0, 327681, -589791, 0, 327681, -589790, 0, 327681, -589789, 0, 327681, -589788, 0, 327681, -589787, 0, 327681, -589786, 0, 327681, -589785, 0, 327681, -589784, 0, 327681, -589783, 0, 327681, -589782, 0, 131080, -458764, 0, 196608, -458763, 0, 327681, -458762, 0, 327681, -458761, 0, 327681, -458760, 0, 327681, -458759, 0, 327681, -458758, 0, 327681, -458757, 0, 327681, -458756, 0, 327681, -458755, 0, 327681, -458754, 0, 327681, -458753, 0, 327681, -524288, 0, 327681, -524287, 0, 327681, -524286, 0, 327681, -524285, 0, 327681, -524284, 0, 327681, -524283, 0, 327681, -524282, 0, 327681, -524281, 0, 327681, -524280, 0, 327681, -524279, 0, 327681, -524278, 0, 327681, -524277, 0, 327681, -524276, 0, 327681, -524275, 0, 327681, -524274, 0, 327681, -524273, 0, 327681, -524272, 0, 327681, -524271, 0, 327681, -524270, 0, 327681, -524269, 0, 327681, -524268, 0, 327681, -524267, 0, 327681, -524266, 0, 327681, -524265, 0, 327681, -524264, 0, 327681, -524263, 0, 327681, -524262, 0, 327681, -524261, 0, 327681, -524260, 0, 327681, -524259, 0, 327681, -524258, 0, 327681, -524257, 0, 327681, -524256, 0, 327681, -524255, 0, 327681, -524254, 0, 327681, -524253, 0, 327681, -524252, 0, 327681, -524251, 0, 327681, -524250, 0, 327681, -524249, 0, 327681, -524248, 0, 327681, -524247, 0, 327681, -524246, 0, 131080, -393228, 0, 196608, -393227, 0, 327681, -393226, 0, 196615, -393225, 0, 196609, -393224, 0, 196609, -393223, 0, 196609, -393222, 0, 196609, -393221, 0, 196609, -393220, 0, 196609, -393219, 0, 196609, -393218, 0, 196609, -393217, 0, 196609, -458752, 0, 196609, -458751, 0, 196609, -458750, 0, 196609, -458749, 0, 196609, -458748, 0, 196609, -458747, 0, 196614, -458746, 0, 327681, -458745, 0, 327681, -458744, 0, 327681, -458743, 0, 327681, -458742, 0, 327681, -458741, 0, 327681, -458740, 0, 327681, -458739, 0, 327681, -458738, 0, 327681, -458737, 0, 327681, -458736, 0, 327681, -458735, 0, 327681, -458734, 0, 327681, -458733, 0, 327681, -458732, 0, 327681, -458731, 0, 327681, -458730, 0, 327681, -458729, 0, 327681, -458728, 0, 327681, -458727, 0, 327681, -458726, 0, 327681, -458725, 0, 327681, -458724, 0, 327681, -458723, 0, 327681, -458722, 0, 327681, -458721, 0, 327681, -458720, 0, 327681, -458719, 0, 327681, -458718, 0, 327681, -458717, 0, 327681, -458716, 0, 327681, -458715, 0, 327681, -458714, 0, 327681, -458713, 0, 327681, -458712, 0, 327681, -458711, 0, 327681, -458710, 0, 131080, -327692, 0, 196608, -327691, 0, 327681, -327690, 0, 131080, -393211, 0, 196608, -393210, 0, 327681, -393209, 0, 327681, -393208, 0, 327681, -393207, 0, 327681, -393206, 0, 327681, -393205, 0, 327681, -393204, 0, 327681, -393203, 0, 327681, -393202, 0, 327681, -393201, 0, 327681, -393200, 0, 327681, -393199, 0, 327681, -393198, 0, 327681, -393197, 0, 327681, -393196, 0, 327681, -393195, 0, 327681, -393194, 0, 327681, -393193, 0, 327681, -393192, 0, 327681, -393191, 0, 327681, -393190, 0, 327681, -393189, 0, 327681, -393188, 0, 327681, -393187, 0, 327681, -393186, 0, 327681, -393185, 0, 327681, -393184, 0, 327681, -393183, 0, 327681, -393182, 0, 327681, -393181, 0, 327681, -393180, 0, 327681, -393179, 0, 327681, -393178, 0, 327681, -393177, 0, 327681, -393176, 0, 327681, -393175, 0, 327681, -393174, 0, 131080, -262156, 0, 196608, -262155, 0, 327681, -262154, 0, 131080, -327675, 0, 196613, -327674, 0, 196609, -327673, 0, 196609, -327672, 0, 196609, -327671, 0, 196609, -327670, 0, 196609, -327669, 0, 196614, -327668, 0, 327681, -327667, 0, 327681, -327666, 0, 327681, -327665, 0, 327681, -327664, 0, 327681, -327663, 0, 327681, -327662, 0, 327681, -327661, 0, 327681, -327660, 0, 327681, -327659, 0, 327681, -327658, 0, 327681, -327657, 0, 327681, -327656, 0, 327681, -327655, 0, 327681, -327654, 0, 327681, -327653, 0, 327681, -327652, 0, 327681, -327651, 0, 327681, -327650, 0, 327681, -327649, 0, 327681, -327648, 0, 327681, -327647, 0, 327681, -327646, 0, 327681, -327645, 0, 327681, -327644, 0, 327681, -327643, 0, 327681, -327642, 0, 327681, -327641, 0, 327681, -327640, 0, 327681, -327639, 0, 327681, -327638, 0, 131080, -196620, 0, 196608, -196619, 0, 327681, -196618, 0, 131080, -262133, 0, 196608, -262132, 0, 196615, -262131, 0, 196609, -262130, 0, 196609, -262129, 0, 196609, -262128, 0, 196614, -262127, 0, 327681, -262126, 0, 327681, -262125, 0, 327681, -262124, 0, 327681, -262123, 0, 327681, -262122, 0, 327681, -262121, 0, 327681, -262120, 0, 327681, -262119, 0, 327681, -262118, 0, 327681, -262117, 0, 327681, -262116, 0, 327681, -262115, 0, 327681, -262114, 0, 327681, -262113, 0, 327681, -262112, 0, 327681, -262111, 0, 327681, -262110, 0, 327681, -262109, 0, 327681, -262108, 0, 327681, -262107, 0, 327681, -262106, 0, 327681, -262105, 0, 327681, -262104, 0, 327681, -262103, 0, 327681, -262102, 0, 131080, -131084, 0, 196608, -131083, 0, 327681, -131082, 0, 131080, -196597, 0, 196613, -196596, 0, 196611, -196592, 0, 196613, -196591, 0, 196609, -196590, 0, 196609, -196589, 0, 196609, -196588, 0, 196609, -196587, 0, 196609, -196586, 0, 196609, -196585, 0, 196609, -196584, 0, 196609, -196583, 0, 196609, -196582, 0, 196609, -196581, 0, 196609, -196580, 0, 196609, -196579, 0, 196609, -196578, 0, 196609, -196577, 0, 196609, -196576, 0, 196609, -196575, 0, 196609, -196574, 0, 196609, -196573, 0, 196609, -196572, 0, 196609, -196571, 0, 196609, -196570, 0, 196609, -196569, 0, 196609, -196568, 0, 196614, -196567, 0, 327681, -196566, 0, 131080, -65548, 0, 196608, -65547, 0, 327681, -65546, 0, 131080, -131032, 0, 196608, -131031, 0, 327681, -131030, 0, 131080, -12, 0, 196608, -11, 0, 327681, -10, 0, 131080, -65528, 0, 6, -65496, 0, 196608, -65495, 0, 327681, -65494, 0, 131080, 65524, 0, 196608, 65525, 0, 327681, 65526, 0, 131080, 8, 0, 65536, 40, 0, 196608, 41, 0, 327681, 42, 0, 131080, 131060, 0, 196608, 131061, 0, 327681, 131062, 0, 196616, 131063, 0, 131081, 131064, 0, 131081, 131065, 0, 131081, 131066, 0, 131081, 131067, 0, 131081, 131068, 0, 131081, 131069, 0, 131081, 131070, 0, 131081, 131071, 0, 131081, 65536, 0, 131081, 65537, 0, 131081, 65538, 0, 131081, 65539, 0, 131081, 65540, 0, 131081, 65541, 0, 131081, 65542, 0, 131081, 65543, 0, 131081, 65544, 0, 131079, 65547, 0, 6, 65567, 0, 196612, 65568, 0, 131081, 65569, 0, 131081, 65570, 0, 131081, 65571, 0, 131081, 65572, 0, 131081, 65573, 0, 131081, 65574, 0, 131081, 65575, 0, 131081, 65576, 0, 196617, 65577, 0, 327681, 65578, 0, 131080, 196596, 0, 196608, 196597, 0, 327681, 196598, 0, 327681, 196599, 0, 327681, 196600, 0, 327681, 196601, 0, 327681, 196602, 0, 327681, 196603, 0, 327681, 196604, 0, 327681, 196605, 0, 327681, 196606, 0, 327681, 196607, 0, 327681, 131072, 0, 327681, 131073, 0, 327681, 131074, 0, 327681, 131075, 0, 327681, 131076, 0, 327681, 131077, 0, 327681, 131078, 0, 327681, 131079, 0, 327681, 131080, 0, 131080, 131083, 0, 131077, 131084, 0, 196610, 131102, 0, 196612, 131103, 0, 196617, 131104, 0, 327681, 131105, 0, 327681, 131106, 0, 327681, 131107, 0, 327681, 131108, 0, 327681, 131109, 0, 327681, 131110, 0, 327681, 131111, 0, 327681, 131112, 0, 327681, 131113, 0, 327681, 131114, 0, 131080, 262132, 0, 196608, 262133, 0, 327681, 262134, 0, 327681, 262135, 0, 327681, 262136, 0, 327681, 262137, 0, 327681, 262138, 0, 327681, 262139, 0, 327681, 262140, 0, 327681, 262141, 0, 327681, 262142, 0, 327681, 262143, 0, 327681, 196608, 0, 327681, 196609, 0, 327681, 196610, 0, 327681, 196611, 0, 327681, 196612, 0, 327681, 196613, 0, 327681, 196614, 0, 327681, 196615, 0, 327681, 196616, 0, 196616, 196617, 0, 131081, 196618, 0, 131081, 196619, 0, 196617, 196620, 0, 131080, 196638, 0, 196608, 196639, 0, 327681, 196640, 0, 327681, 196641, 0, 327681, 196642, 0, 327681, 196643, 0, 327681, 196644, 0, 327681, 196645, 0, 327681, 196646, 0, 327681, 196647, 0, 327681, 196648, 0, 327681, 196649, 0, 327681, 196650, 0, 131080, 327668, 0, 196608, 327669, 0, 327681, 327670, 0, 327681, 327671, 0, 327681, 327672, 0, 327681, 327673, 0, 327681, 327674, 0, 327681, 327675, 0, 327681, 327676, 0, 327681, 327677, 0, 327681, 327678, 0, 327681, 327679, 0, 327681, 262144, 0, 327681, 262145, 0, 327681, 262146, 0, 327681, 262147, 0, 327681, 262148, 0, 327681, 262149, 0, 327681, 262150, 0, 327681, 262151, 0, 327681, 262152, 0, 327681, 262153, 0, 327681, 262154, 0, 327681, 262155, 0, 327681, 262156, 0, 131080, 262174, 0, 196608, 262175, 0, 327681, 262176, 0, 327681, 262177, 0, 327681, 262178, 0, 327681, 262179, 0, 327681, 262180, 0, 327681, 262181, 0, 327681, 262182, 0, 327681, 262183, 0, 327681, 262184, 0, 327681, 262185, 0, 327681, 262186, 0, 131080, 393204, 0, 196608, 393205, 0, 327681, 393206, 0, 327681, 393207, 0, 327681, 393208, 0, 327681, 393209, 0, 327681, 393210, 0, 327681, 393211, 0, 327681, 393212, 0, 327681, 393213, 0, 327681, 393214, 0, 327681, 393215, 0, 327681, 327680, 0, 327681, 327681, 0, 327681, 327682, 0, 327681, 327683, 0, 327681, 327684, 0, 327681, 327685, 0, 327681, 327686, 0, 327681, 327687, 0, 327681, 327688, 0, 327681, 327689, 0, 327681, 327690, 0, 327681, 327691, 0, 327681, 327692, 0, 131080, 327710, 0, 196608, 327711, 0, 327681, 327712, 0, 327681, 327713, 0, 327681, 327714, 0, 327681, 327715, 0, 327681, 327716, 0, 327681, 327717, 0, 327681, 327718, 0, 327681, 327719, 0, 327681, 327720, 0, 327681, 327721, 0, 327681, 327722, 0, 131080, 458740, 0, 196608, 458741, 0, 327681, 458742, 0, 327681, 458743, 0, 327681, 458744, 0, 327681, 458745, 0, 327681, 458746, 0, 327681, 458747, 0, 327681, 458748, 0, 327681, 458749, 0, 327681, 458750, 0, 327681, 458751, 0, 327681, 393216, 0, 327681, 393217, 0, 327681, 393218, 0, 327681, 393219, 0, 327681, 393220, 0, 327681, 393221, 0, 327681, 393222, 0, 327681, 393223, 0, 327681, 393224, 0, 327681, 393225, 0, 327681, 393226, 0, 327681, 393227, 0, 327681, 393228, 0, 131080, 393246, 0, 196608, 393247, 0, 327681, 393248, 0, 327681, 393249, 0, 327681, 393250, 0, 327681, 393251, 0, 327681, 393252, 0, 327681, 393253, 0, 327681, 393254, 0, 327681, 393255, 0, 327681, 393256, 0, 327681, 393257, 0, 327681, 393258, 0, 131080, 524276, 0, 196608, 524277, 0, 327681, 524278, 0, 327681, 524279, 0, 327681, 524280, 0, 327681, 524281, 0, 327681, 524282, 0, 327681, 524283, 0, 327681, 524284, 0, 327681, 524285, 0, 327681, 524286, 0, 327681, 524287, 0, 327681, 458752, 0, 327681, 458753, 0, 327681, 458754, 0, 327681, 458755, 0, 327681, 458756, 0, 327681, 458757, 0, 327681, 458758, 0, 327681, 458759, 0, 327681, 458760, 0, 327681, 458761, 0, 327681, 458762, 0, 327681, 458763, 0, 327681, 458764, 0, 196616, 458765, 0, 131081, 458766, 0, 131081, 458767, 0, 131081, 458768, 0, 131081, 458769, 0, 131081, 458770, 0, 131081, 458771, 0, 131081, 458772, 0, 131081, 458773, 0, 131081, 458774, 0, 131081, 458775, 0, 131081, 458776, 0, 131081, 458777, 0, 131081, 458778, 0, 131081, 458779, 0, 131081, 458780, 0, 131081, 458781, 0, 131081, 458782, 0, 196617, 458783, 0, 327681, 458784, 0, 327681, 458785, 0, 327681, 458786, 0, 327681, 458787, 0, 327681, 458788, 0, 327681, 458789, 0, 327681, 458790, 0, 327681, 458791, 0, 327681, 458792, 0, 327681, 458793, 0, 327681, 458794, 0, 131080, 589812, 0, 196613, 589813, 0, 196609, 589814, 0, 196609, 589815, 0, 196609, 589816, 0, 196609, 589817, 0, 196609, 589818, 0, 196609, 589819, 0, 196609, 589820, 0, 196609, 589821, 0, 196609, 589822, 0, 196609, 589823, 0, 196609, 524288, 0, 196609, 524289, 0, 196609, 524290, 0, 196609, 524291, 0, 196609, 524292, 0, 196609, 524293, 0, 196609, 524294, 0, 196609, 524295, 0, 196609, 524296, 0, 196609, 524297, 0, 196609, 524298, 0, 196609, 524299, 0, 196609, 524300, 0, 196609, 524301, 0, 196609, 524302, 0, 196609, 524303, 0, 196609, 524304, 0, 196609, 524305, 0, 196609, 524306, 0, 196609, 524307, 0, 196609, 524308, 0, 196609, 524309, 0, 196609, 524310, 0, 196609, 524311, 0, 196609, 524312, 0, 196609, 524313, 0, 196609, 524314, 0, 196609, 524315, 0, 196609, 524316, 0, 196609, 524317, 0, 196609, 524318, 0, 196609, 524319, 0, 196609, 524320, 0, 196609, 524321, 0, 196609, 524322, 0, 196609, 524323, 0, 196609, 524324, 0, 196609, 524325, 0, 196609, 524326, 0, 196609, 524327, 0, 196609, 524328, 0, 196609, 524329, 0, 196609, 524330, 0, 196611 )

[node name="Props" parent="." index="2"]
tile_data = PoolIntArray( -327645, 536870921, 0, -196595, 13, 0, -196594, 13, 0, -196593, 12, 0, -196590, 1610612768, 0, -196589, 1610612767, 0, -196588, 1610612767, 0, -196587, 1610612766, 0, -196572, 536870920, 0, -131055, 12, 0, -131054, 1610612770, 0, -131053, 1610612771, 0, -131052, 1610612771, 0, -131051, 1610612769, 0, -131048, 14, 0, -131047, 13, 0, -131046, 27, 0, -131044, 13, 0, -131042, 14, 0, -131039, 14, 0, -65510, 28, 0, -65504, 15, 0, -65500, 18, 0, 65528, 6, 0, 65530, 6, 0, 65534, 2, 0, 65535, 6, 0, 5, 3, 0, 26, 28, 0, 131071, 22, 0, 65536, 24, 0, 65537, 23, 0, 65548, 2, 0, 65562, 28, 0, 196602, 11, 0, 196606, 9, 0, 131077, 8, 0, 131098, 28, 0, 131106, 536870920, 0, 196610, 1073741834, 0, 196620, 536870922, 0, 196634, 28, 0, 196640, 10, 0, 196643, 536870923, 0, 327676, 10, 0, 262148, 11, 0, 262152, 10, 0, 262170, 28, 0, 327680, 9, 0, 327706, 28, 0, 327708, 16, 0, 327711, 1610612745, 0, 327717, 10, 0, 458744, 10, 0, 393221, 10, 0, 393226, 536870923, 0, 393232, 536870913, 0, 393235, 536870912, 0, 393242, 29, 0, 393250, 10, 0 )

[node name="Drip" parent="AnimatedProps" index="0" instance=ExtResource( 2 )]
position = Vector2( 0, -96 )
height = 7
period = 2.0

[node name="Spider" parent="AnimatedProps" index="1" instance=ExtResource( 3 )]
position = Vector2( 344, -40 )
height = 7

[node name="Torch" parent="AnimatedProps" index="2" instance=ExtResource( 4 )]
position = Vector2( 280, 80 )

[node name="Player" parent="map" index="0"]
position = Vector2( -88, 0 )

[node name="PlayerCamera" parent="map" index="1"]
editor/display_folded = true
position = Vector2( -88, 0 )
limit_left = -152
limit_top = -72
limit_right = 632
limit_bottom = 120

[node name="Exit" parent="map" index="2"]
position = Vector2( 608, -4 )
next_stage = ExtResource( 5 )

[node name="Block" parent="map" index="3" instance=ExtResource( 6 )]
position = Vector2( 64, 0 )

[node name="Block2" parent="map" index="4" instance=ExtResource( 6 )]
position = Vector2( 64, -16 )

[node name="Spikes" parent="map" index="5" instance=ExtResource( 7 )]
position = Vector2( 160, 32 )

[node name="Block4" parent="map" index="6" instance=ExtResource( 6 )]
position = Vector2( 368, 96 )

[node name="Block5" parent="map" index="7" instance=ExtResource( 6 )]
position = Vector2( 384, 96 )

[node name="Block6" parent="map" index="8" instance=ExtResource( 6 )]
position = Vector2( 384, 80 )

[node name="Block7" parent="map" index="9" instance=ExtResource( 6 )]
position = Vector2( 280, 96 )

[node name="Block8" parent="map" index="10" instance=ExtResource( 6 )]
position = Vector2( 400, 96 )

[node name="Block10" parent="map" index="11" instance=ExtResource( 6 )]
position = Vector2( 296, 96 )

[node name="Spikes2" parent="map" index="12" instance=ExtResource( 7 )]
position = Vector2( 144, 32 )

[node name="Block11" parent="map" index="13" instance=ExtResource( 6 )]
position = Vector2( 48, 0 )

[node name="Label" type="Label" parent="map" index="14"]
margin_left = -137.06
margin_top = 11.9519
margin_right = 2.93976
margin_bottom = 38.9519
custom_fonts/font = SubResource( 1 )
custom_colors/font_color = Color( 0, 0, 0, 1 )
text = "Press R to restart."

[node name="cursor" parent="." index="5"]
position = Vector2( -88, 0 )

[node name="Preview" parent="." index="6"]
position = Vector2( -88, 0 )
