; Engine configuration file.
; It's best edited using the editor UI and not directly,
; since the parameters that go here are not all obvious.
;
; Format:
;   [section] ; section goes between []
;   param=value ; assign values to parameters

config_version=4

_global_script_classes=[ {
"base": "KinematicBody2D",
"class": "Actor",
"language": "GDScript",
"path": "res://actors/base_actor.gd"
}, {
"base": "Node",
"class": "BGM",
"language": "GDScript",
"path": "res://bgm/BGM.gd"
}, {
"base": "Node",
"class": "Controllable",
"language": "GDScript",
"path": "res://actors/components/controllable.gd"
}, {
"base": "Area2D",
"class": "Cursor",
"language": "GDScript",
"path": "res://ui/cursor/cursor.gd"
}, {
"base": "Node",
"class": "Gravity",
"language": "GDScript",
"path": "res://actors/components/gravity.gd"
}, {
"base": "Node",
"class": "Heavy",
"language": "GDScript",
"path": "res://actors/components/heavy/heavy.gd"
}, {
"base": "Node",
"class": "ItemHandler",
"language": "GDScript",
"path": "res://actors/components/item_handler.gd"
}, {
"base": "Node",
"class": "Killable",
"language": "GDScript",
"path": "res://actors/components/killable/killable.gd"
}, {
"base": "Object",
"class": "Locator",
"language": "GDScript",
"path": "res://common/locator.gd"
}, {
"base": "Control",
"class": "Main",
"language": "GDScript",
"path": "res://main/main.gd"
}, {
"base": "TileMap",
"class": "Map",
"language": "GDScript",
"path": "res://spaces/map.gd"
}, {
"base": "Node",
"class": "Pickable",
"language": "GDScript",
"path": "res://actors/components/pickable.gd"
}, {
"base": "Position2D",
"class": "Preview",
"language": "GDScript",
"path": "res://spaces/preview/preview.gd"
}, {
"base": "Node2D",
"class": "Space",
"language": "GDScript",
"path": "res://spaces/base_space.gd"
}, {
"base": "Node",
"class": "Transportable",
"language": "GDScript",
"path": "res://actors/components/transportable.gd"
}, {
"base": "Node",
"class": "Walker",
"language": "GDScript",
"path": "res://actors/components/walker.gd"
} ]
_global_script_class_icons={
"Actor": "",
"BGM": "",
"Controllable": "",
"Cursor": "",
"Gravity": "",
"Heavy": "",
"ItemHandler": "",
"Killable": "",
"Locator": "",
"Main": "",
"Map": "",
"Pickable": "",
"Preview": "",
"Space": "",
"Transportable": "",
"Walker": ""
}

[application]

config/name="Nothing Matters"
run/main_scene="res://ui/title/title.tscn"
config/icon="res://assets/sprites/witchShoot0002.png"

[autoload]

BGM="*res://bgm/BGM.tscn"
binds="*res://common/binds.tscn"

[debug]

gdscript/warnings/unused_variable=false
gdscript/warnings/unused_class_variable=false
gdscript/warnings/unused_argument=false
gdscript/warnings/unused_signal=false
gdscript/warnings/return_value_discarded=false

[display]

window/size/width=1152
window/size/height=768
window/size/resizable=false
window/size/fullscreen=true

[importer_defaults]

texture={
"compress/bptc_ldr": 0,
"compress/hdr_mode": 0,
"compress/lossy_quality": 0.7,
"compress/mode": 0,
"compress/normal_map": 0,
"detect_3d": false,
"flags/anisotropic": false,
"flags/filter": false,
"flags/mipmaps": false,
"flags/repeat": 0,
"flags/srgb": 2,
"process/HDR_as_SRGB": false,
"process/fix_alpha_border": true,
"process/invert_color": false,
"process/premult_alpha": false,
"size_limit": 0,
"stream": false,
"svg/scale": 1.0
}

[input]

ui_left={
"deadzone": 0.5,
"events": [ Object(InputEventJoypadButton,"resource_local_to_scene":false,"resource_name":"","device":0,"button_index":14,"pressure":0.0,"pressed":false,"script":null)
, Object(InputEventKey,"resource_local_to_scene":false,"resource_name":"","device":0,"alt":false,"shift":false,"control":false,"meta":false,"command":false,"pressed":false,"scancode":65,"unicode":0,"echo":false,"script":null)
 ]
}
ui_right={
"deadzone": 0.5,
"events": [ Object(InputEventJoypadButton,"resource_local_to_scene":false,"resource_name":"","device":0,"button_index":15,"pressure":0.0,"pressed":false,"script":null)
, Object(InputEventKey,"resource_local_to_scene":false,"resource_name":"","device":0,"alt":false,"shift":false,"control":false,"meta":false,"command":false,"pressed":false,"scancode":68,"unicode":0,"echo":false,"script":null)
 ]
}
ui_up={
"deadzone": 0.5,
"events": [ Object(InputEventJoypadButton,"resource_local_to_scene":false,"resource_name":"","device":0,"button_index":12,"pressure":0.0,"pressed":false,"script":null)
, Object(InputEventKey,"resource_local_to_scene":false,"resource_name":"","device":0,"alt":false,"shift":false,"control":false,"meta":false,"command":false,"pressed":false,"scancode":87,"unicode":0,"echo":false,"script":null)
 ]
}
ui_down={
"deadzone": 0.5,
"events": [ Object(InputEventJoypadButton,"resource_local_to_scene":false,"resource_name":"","device":0,"button_index":13,"pressure":0.0,"pressed":false,"script":null)
, Object(InputEventKey,"resource_local_to_scene":false,"resource_name":"","device":0,"alt":false,"shift":false,"control":false,"meta":false,"command":false,"pressed":false,"scancode":83,"unicode":0,"echo":false,"script":null)
 ]
}
left_mouse_click={
"deadzone": 0.5,
"events": [ Object(InputEventMouseButton,"resource_local_to_scene":false,"resource_name":"","device":0,"alt":false,"shift":false,"control":false,"meta":false,"command":false,"button_mask":0,"position":Vector2( 0, 0 ),"global_position":Vector2( 0, 0 ),"factor":1.0,"button_index":1,"pressed":false,"doubleclick":false,"script":null)
 ]
}
right_mouse_click={
"deadzone": 0.5,
"events": [ Object(InputEventMouseButton,"resource_local_to_scene":false,"resource_name":"","device":0,"alt":false,"shift":false,"control":false,"meta":false,"command":false,"button_mask":0,"position":Vector2( 0, 0 ),"global_position":Vector2( 0, 0 ),"factor":1.0,"button_index":2,"pressed":false,"doubleclick":false,"script":null)
 ]
}
quit={
"deadzone": 0.5,
"events": [ Object(InputEventKey,"resource_local_to_scene":false,"resource_name":"","device":0,"alt":false,"shift":false,"control":false,"meta":false,"command":false,"pressed":false,"scancode":16777217,"unicode":0,"echo":false,"script":null)
 ]
}
fullscreen_toggle={
"deadzone": 0.5,
"events": [ Object(InputEventKey,"resource_local_to_scene":false,"resource_name":"","device":0,"alt":false,"shift":false,"control":false,"meta":false,"command":false,"pressed":false,"scancode":16777247,"unicode":0,"echo":false,"script":null)
 ]
}
reset={
"deadzone": 0.5,
"events": [ Object(InputEventKey,"resource_local_to_scene":false,"resource_name":"","device":0,"alt":false,"shift":false,"control":false,"meta":false,"command":false,"pressed":false,"scancode":82,"unicode":0,"echo":false,"script":null)
 ]
}

[layer_names]

2d_physics/layer_1="Player"
2d_physics/layer_2="Structures"
2d_physics/layer_3="Props"
2d_physics/layer_4="Equipments"
2d_physics/layer_5="Monsters"
2d_physics/layer_6="Scenery"
2d_physics/layer_7="Cursor"
2d_physics/layer_8="Projectile"
2d_physics/layer_9="ActiveShield"

[rendering]

quality/driver/driver_name="GLES2"
quality/2d/use_pixel_snap=true
vram_compression/import_etc=true
vram_compression/import_etc2=false
environment/default_clear_color=Color( 0, 0, 0, 1 )
environment/default_environment="res://default_env.tres"
