[gd_scene load_steps=3 format=2]

[ext_resource path="res://spaces/nothing/info.gd" type="Script" id=1]
[ext_resource path="res://ui/font12.tres" type="DynamicFont" id=2]

[node name="Info" type="Control"]
margin_left = -48.0
margin_top = -96.0
margin_right = 48.0
margin_bottom = 96.0
script = ExtResource( 1 )

[node name="Label" type="Label" parent="."]
anchor_right = 1.0
margin_bottom = 48.0
custom_fonts/font = ExtResource( 2 )
custom_colors/font_color = Color( 0.392157, 0.411765, 0.392157, 1 )
text = "You have
NOTHING"
align = 1
valign = 1
