[gd_scene load_steps=3 format=2]

[ext_resource path="res://spaces/base_space.tscn" type="PackedScene" id=1]
[ext_resource path="res://spaces/nothing/info.tscn" type="PackedScene" id=2]

[node name="Nothing" instance=ExtResource( 1 )]

[node name="Info" parent="." index="0" instance=ExtResource( 2 )]

[node name="map" parent="." index="5"]
referential_path = NodePath("Center")
spawn_height = -64.0

[node name="Center" type="Camera2D" parent="map" index="0"]
current = true
zoom = Vector2( 0.25, 0.25 )
drag_margin_h_enabled = false
drag_margin_v_enabled = false

[node name="Bounds" type="StaticBody2D" parent="map" index="1" groups=[
"nothing_bounds",
]]
collision_layer = 2
collision_mask = 221

[node name="Polygon2D" type="Polygon2D" parent="map/Bounds" index="0"]
visible = false
color = Color( 0.392157, 0.411765, 0.392157, 1 )
polygon = PoolVector2Array( -48, -96, 48, -96, 48, 0, 40, 0, 40, -88, -40, -88, -40, 88, 40, 88, 40, 0, 48, 0, 48, 96, -48, 96 )

[node name="CollisionPolygon2D" type="CollisionPolygon2D" parent="map/Bounds" index="1"]
polygon = PoolVector2Array( -64, -112, 64, -112, 64, 0, 40, 0, 40, -88, -40, -88, -40, 88, 40, 88, 40, 0, 64, 0, 64, 112, -64, 112 )

[node name="Referential" type="Position2D" parent="map" index="2"]
position = Vector2( 0, 80 )

[node name="cursor" parent="." index="6"]
visible = false
referential_path = NodePath("../map/Referential")

[node name="Preview" parent="." index="7"]
position = Vector2( 0, -56 )
horizontal_only = true
map_path = NodePath("../map")
