[gd_scene load_steps=2 format=2]

[ext_resource path="res://assets/sfx/nothingunlocksfx.wav" type="AudioStream" id=1]

[node name="UnlockSFX" type="AudioStreamPlayer"]
stream = ExtResource( 1 )
autoplay = true
bus = "SFX"
[connection signal="finished" from="." to="." method="queue_free"]
