[gd_scene load_steps=4 format=2]

[ext_resource path="res://assets/sprites/Spritesheet2.png" type="Texture" id=1]
[ext_resource path="res://spaces/stages/scenery/HangingBat.gd" type="Script" id=2]


[sub_resource type="Animation" id=1]
resource_name = "Flutter"
length = 0.2
tracks/0/type = "value"
tracks/0/path = NodePath(".:frame")
tracks/0/interp = 1
tracks/0/loop_wrap = true
tracks/0/imported = false
tracks/0/enabled = true
tracks/0/keys = {
"times": PoolRealArray( 0, 0.1 ),
"transitions": PoolRealArray( 1, 1 ),
"update": 1,
"values": [ 1, 0 ]
}

[node name="HangingBat" type="Sprite"]
texture = ExtResource( 1 )
hframes = 2
region_enabled = true
region_rect = Rect2( 32, 112, 32, 16 )
script = ExtResource( 2 )

[node name="AnimationPlayer" type="AnimationPlayer" parent="."]
anims/Flutter = SubResource( 1 )

[node name="Timer" type="Timer" parent="."]
one_shot = true
[connection signal="timeout" from="Timer" to="." method="_on_Timer_timeout"]
