[gd_scene load_steps=4 format=2]

[ext_resource path="res://spaces/stages/scenery/Spider.gd" type="Script" id=1]
[ext_resource path="res://assets/sprites/Spritesheet2.png" type="Texture" id=2]

[sub_resource type="Animation" id=1]
resource_name = "Skitter"
length = 0.1
step = 0.05
tracks/0/type = "value"
tracks/0/path = NodePath(".:frame")
tracks/0/interp = 1
tracks/0/loop_wrap = true
tracks/0/imported = false
tracks/0/enabled = true
tracks/0/keys = {
"times": PoolRealArray( 0, 0.05 ),
"transitions": PoolRealArray( 1, 1 ),
"update": 1,
"values": [ 1, 0 ]
}

[node name="Spider" type="Node2D"]
script = ExtResource( 1 )

[node name="Web" type="Sprite" parent="."]
position = Vector2( 1, 1 )
texture = ExtResource( 2 )
region_enabled = true
region_rect = Rect2( 88, 81, 1, 1 )

[node name="Spider" type="Sprite" parent="."]
position = Vector2( 0, 8 )
texture = ExtResource( 2 )
hframes = 2
region_enabled = true
region_rect = Rect2( 96, 80, 32, 16 )

[node name="AnimationPlayer" type="AnimationPlayer" parent="Spider"]
anims/Skitter = SubResource( 1 )

[node name="Tween" type="Tween" parent="."]

[node name="Timer" type="Timer" parent="."]
one_shot = true
[connection signal="timeout" from="Timer" to="." method="_on_Timer_timeout"]
