[gd_scene load_steps=3 format=2]

[ext_resource path="res://assets/sprites/Spritesheet1.png" type="Texture" id=1]
[ext_resource path="res://spaces/stages/scenery/torch.gd" type="Script" id=2]

[node name="Torch" type="Sprite"]
position = Vector2( -1, 0 )
z_index = -10
texture = ExtResource( 1 )
vframes = 10
hframes = 10
frame = 82
script = ExtResource( 2 )

[node name="Smoke" type="CPUParticles2D" parent="."]
position = Vector2( 0, -4 )
rotation = -1.5708
explosiveness = 0.4
randomness = 1.0
local_coords = false
emission_shape = 1
emission_sphere_radius = 2.0
spread = 0.0
gravity = Vector2( 0, 0 )
initial_velocity = 30.0
color = Color( 0.392157, 0.411765, 0.392157, 1 )

[node name="Timer" type="Timer" parent="."]
wait_time = 0.1
autostart = true
[connection signal="timeout" from="Timer" to="." method="_on_Timer_timeout"]
