[gd_scene load_steps=4 format=2]

[ext_resource path="res://actors/components/shooter.gd" type="Script" id=1]
[ext_resource path="res://actors/props/projectile/projectile.tscn" type="PackedScene" id=2]
[ext_resource path="res://assets/sfx/nothingshootsfx.wav" type="AudioStream" id=3]

[node name="Shooter" type="Node"]
script = ExtResource( 1 )
projectile = ExtResource( 2 )
shoot_offset = 11.0

[node name="Timer" type="Timer" parent="."]
one_shot = true

[node name="SFX" type="AudioStreamPlayer" parent="."]
stream = ExtResource( 3 )
bus = "SFX"
