[gd_scene load_steps=10 format=2]

[ext_resource path="res://spaces/stages/base_stage.tscn" type="PackedScene" id=1]
[ext_resource path="res://spaces/stages/scenery/FlyingBat.tscn" type="PackedScene" id=2]
[ext_resource path="res://spaces/stages/scenery/HangingBat.tscn" type="PackedScene" id=3]
[ext_resource path="res://spaces/stages/new_stages/stage_02/main.tscn" type="PackedScene" id=4]
[ext_resource path="res://spaces/Label.tscn" type="PackedScene" id=5]
[ext_resource path="res://assets/fonts/yoster-island/yoster.ttf" type="DynamicFontData" id=6]
[ext_resource path="res://actors/props/block/block.tscn" type="PackedScene" id=7]
[ext_resource path="res://actors/monsters/crawler/crawler.tscn" type="PackedScene" id=8]

[sub_resource type="DynamicFont" id=1]
size = 12
font_data = ExtResource( 6 )

[node name="space" instance=ExtResource( 1 )]

[node name="Background" parent="." index="0"]
tile_data = PoolIntArray( -458752, 8, 0, -458751, 8, 0, -458750, 8, 0, -458749, 8, 0, -458748, 8, 0, -458747, 8, 0, -458746, 8, 0, -458745, 8, 0, -458744, 8, 0, -458743, 8, 0, -458742, 8, 0, -458741, 8, 0, -458740, 8, 0, -458739, 8, 0, -458738, 8, 0, -458737, 8, 0, -458736, 8, 0, -458735, 8, 0, -458734, 8, 0, -458733, 8, 0, -458732, 8, 0, -458731, 8, 0, -458730, 8, 0, -458729, 8, 0, -458728, 8, 0, -458727, 8, 0, -458726, 8, 0, -458725, 8, 0, -458724, 8, 0, -458723, 8, 0, -458722, 8, 0, -458721, 8, 0, -458720, 8, 0, -458719, 8, 0, -458718, 8, 0, -458717, 8, 0, -458716, 8, 0, -458715, 8, 0, -458714, 8, 0, -458713, 8, 0, -458712, 8, 0, -458711, 8, 0, -458710, 8, 0, -458709, 8, 0, -458708, 8, 0, -458707, 8, 0, -458706, 8, 0, -458705, 8, 0, -458704, 8, 0, -458703, 8, 0, -458702, 8, 0, -458701, 8, 0, -458700, 8, 0, -458699, 8, 0, -458698, 8, 0, -458697, 8, 0, -458696, 8, 0, -458695, 8, 0, -458694, 8, 0, -458693, 8, 0, -458692, 8, 0, -458691, 8, 0, -458690, 8, 0, -458689, 8, 0, -393216, 8, 0, -393215, 8, 0, -393214, 8, 0, -393213, 8, 0, -393212, 8, 0, -393211, 8, 0, -393210, 8, 0, -393209, 8, 0, -393208, 8, 0, -393207, 8, 0, -393206, 8, 0, -393205, 8, 0, -393204, 8, 0, -393203, 8, 0, -393202, 8, 0, -393201, 8, 0, -393200, 8, 0, -393199, 8, 0, -393198, 8, 0, -393197, 8, 0, -393196, 8, 0, -393195, 8, 0, -393194, 8, 0, -393193, 8, 0, -393192, 8, 0, -393191, 8, 0, -393190, 8, 0, -393189, 8, 0, -393188, 8, 0, -393187, 8, 0, -393186, 8, 0, -393185, 8, 0, -393184, 2, 0, -393183, 2, 0, -393182, 2, 0, -393181, 2, 0, -393180, 2, 0, -393179, 2, 0, -393178, 2, 0, -393177, 2, 0, -393176, 2, 0, -393175, 2, 0, -393174, 2, 0, -393173, 2, 0, -393172, 2, 0, -393171, 2, 0, -393170, 2, 0, -393169, 2, 0, -393168, 2, 0, -393167, 2, 0, -393166, 2, 0, -393165, 2, 0, -393164, 2, 0, -393163, 2, 0, -393162, 2, 0, -393161, 2, 0, -393160, 2, 0, -393159, 2, 0, -393158, 2, 0, -393157, 2, 0, -393156, 2, 0, -393155, 2, 0, -393154, 2, 0, -393153, 2, 0, -327680, 8, 0, -327679, 8, 0, -327678, 10, 0, -327677, 11, 0, -327676, 8, 0, -327675, 8, 0, -327674, 9, 0, -327673, 8, 0, -327672, 8, 0, -327671, 8, 0, -327670, 10, 0, -327669, 11, 0, -327668, 8, 0, -327667, 8, 0, -327666, 8, 0, -327665, 10, 0, -327664, 8, 0, -327663, 12, 0, -327662, 12, 0, -327661, 8, 0, -327660, 8, 0, -327659, 8, 0, -327658, 8, 0, -327657, 8, 0, -327656, 8, 0, -327655, 8, 0, -327654, 8, 0, -327653, 8, 0, -327652, 8, 0, -327651, 8, 0, -327650, 8, 0, -327649, 2, 0, -327648, 2, 0, -327647, 2, 0, -327646, 2, 0, -327645, 2, 0, -327644, 2, 0, -327643, 2, 0, -327642, 2, 0, -327641, 2, 0, -327640, 2, 0, -327639, 2, 0, -327638, 2, 0, -327637, 2, 0, -327636, 2, 0, -327635, 2, 0, -327634, 2, 0, -327633, 2, 0, -327632, 2, 0, -327631, 2, 0, -327630, 2, 0, -327629, 2, 0, -327628, 2, 0, -327627, 2, 0, -327626, 2, 0, -327625, 2, 0, -327624, 2, 0, -327623, 2, 0, -327622, 2, 0, -327621, 2, 0, -327620, 2, 0, -327619, 2, 0, -327618, 2, 0, -327617, 2, 0, -262144, 8, 0, -262143, 8, 0, -262142, 8, 0, -262141, 8, 0, -262140, 8, 0, -262139, 8, 0, -262138, 8, 0, -262137, 10, 0, -262136, 11, 0, -262135, 8, 0, -262134, 8, 0, -262133, 8, 0, -262132, 8, 0, -262131, 9, 0, -262130, 8, 0, -262129, 8, 0, -262128, 9, 0, -262127, 18, 0, -262126, 12, 0, -262125, 8, 0, -262124, 8, 0, -262123, 8, 0, -262122, 8, 0, -262121, 8, 0, -262120, 8, 0, -262119, 8, 0, -262118, 8, 0, -262117, 8, 0, -262116, 8, 0, -262115, 8, 0, -262114, 8, 0, -262113, 2, 0, -262112, 2, 0, -262111, 2, 0, -262110, 2, 0, -262109, 2, 0, -262108, 2, 0, -262107, 2, 0, -262106, 2, 0, -262105, 2, 0, -262104, 2, 0, -262103, 2, 0, -262102, 2, 0, -262101, 2, 0, -262100, 2, 0, -262099, 2, 0, -262098, 2, 0, -262097, 2, 0, -262096, 2, 0, -262095, 2, 0, -262094, 2, 0, -262093, 2, 0, -262092, 2, 0, -262091, 2, 0, -262090, 2, 0, -262089, 2, 0, -262088, 2, 0, -262087, 2, 0, -262086, 2, 0, -262085, 2, 0, -262084, 2, 0, -262083, 2, 0, -262082, 2, 0, -262081, 2, 0, -196608, 8, 0, -196607, 8, 0, -196606, 8, 0, -196605, 8, 0, -196604, 9, 0, -196603, 8, 0, -196602, 8, 0, -196601, 8, 0, -196600, 8, 0, -196599, 8, 0, -196598, 8, 0, -196597, 8, 0, -196596, 9, 0, -196595, 8, 0, -196594, 8, 0, -196593, 8, 0, -196592, 8, 0, -196591, 20, 0, -196590, 12, 0, -196589, 12, 0, -196588, 12, 0, -196587, 12, 0, -196586, 12, 0, -196585, 12, 0, -196584, 12, 0, -196583, 12, 0, -196582, 8, 0, -196581, 8, 0, -196580, 8, 0, -196579, 8, 0, -196578, 8, 0, -196577, 8, 0, -196576, 2, 0, -196575, 2, 0, -196574, 2, 0, -196573, 2, 0, -196572, 2, 0, -196571, 2, 0, -196570, 2, 0, -196569, 2, 0, -196568, 2, 0, -196567, 2, 0, -196566, 2, 0, -196565, 2, 0, -196564, 2, 0, -196563, 2, 0, -196562, 2, 0, -196561, 2, 0, -196560, 2, 0, -196559, 2, 0, -196558, 2, 0, -196557, 2, 0, -196556, 2, 0, -196555, 2, 0, -196554, 2, 0, -196553, 2, 0, -196552, 2, 0, -196551, 2, 0, -196550, 2, 0, -196549, 2, 0, -196548, 2, 0, -196547, 2, 0, -196546, 2, 0, -196545, 2, 0, -131072, 8, 0, -131071, 8, 0, -131070, 8, 0, -131069, 8, 0, -131068, 8, 0, -131067, 8, 0, -131066, 8, 0, -131065, 8, 0, -131064, 8, 0, -131063, 8, 0, -131062, 8, 0, -131061, 8, 0, -131060, 8, 0, -131059, 8, 0, -131058, 8, 0, -131057, 8, 0, -131056, 8, 0, -131055, 22, 0, -131054, 12, 0, -131053, 12, 0, -131052, 12, 0, -131051, 12, 0, -131050, 12, 0, -131049, 12, 0, -131048, 12, 0, -131047, 12, 0, -131046, 23, 0, -131045, 2, 0, -131044, 2, 0, -131043, 8, 0, -131042, 8, 0, -131041, 2, 0, -131040, 2, 0, -131039, 2, 0, -131038, 2, 0, -131037, 2, 0, -131036, 2, 0, -131035, 2, 0, -131034, 2, 0, -131033, 2, 0, -131032, 2, 0, -131031, 2, 0, -131030, 2, 0, -131029, 2, 0, -131028, 2, 0, -131027, 2, 0, -131026, 2, 0, -131025, 2, 0, -131024, 2, 0, -131023, 2, 0, -131022, 2, 0, -131021, 2, 0, -131020, 2, 0, -131019, 2, 0, -131018, 2, 0, -131017, 2, 0, -131016, 2, 0, -131015, 2, 0, -131014, 2, 0, -131013, 2, 0, -131012, 2, 0, -131011, 2, 0, -131010, 2, 0, -131009, 2, 0, -65536, 8, 0, -65535, 8, 0, -65534, 8, 0, -65533, 8, 0, -65532, 8, 0, -65531, 8, 0, -65530, 8, 0, -65529, 8, 0, -65528, 8, 0, -65527, 8, 0, -65526, 8, 0, -65525, 8, 0, -65524, 8, 0, -65523, 8, 0, -65522, 8, 0, -65521, 8, 0, -65520, 8, 0, -65519, 8, 0, -65518, 18, 0, -65517, 12, 0, -65516, 12, 0, -65515, 12, 0, -65514, 12, 0, -65513, 12, 0, -65512, 12, 0, -65511, 12, 0, -65510, 25, 0, -65509, 2, 0, -65508, 2, 0, -65507, 2, 0, -65506, 2, 0, -65505, 2, 0, -65504, 2, 0, -65503, 2, 0, -65502, 2, 0, -65501, 2, 0, -65500, 2, 0, -65499, 2, 0, -65498, 2, 0, -65497, 2, 0, -65496, 2, 0, -65495, 2, 0, -65494, 2, 0, -65493, 2, 0, -65492, 2, 0, -65491, 2, 0, -65490, 2, 0, -65489, 2, 0, -65488, 2, 0, -65487, 2, 0, -65486, 2, 0, -65485, 2, 0, -65484, 2, 0, -65483, 2, 0, -65482, 2, 0, -65481, 2, 0, -65480, 2, 0, -65479, 2, 0, -65478, 2, 0, -65477, 2, 0, -65476, 2, 0, -65475, 2, 0, -65474, 2, 0, -65473, 2, 0, 0, 8, 0, 1, 8, 0, 2, 8, 0, 3, 8, 0, 4, 8, 0, 5, 8, 0, 6, 8, 0, 7, 8, 0, 8, 8, 0, 9, 8, 0, 10, 8, 0, 11, 8, 0, 12, 8, 0, 13, 8, 0, 14, 8, 0, 15, 8, 0, 16, 8, 0, 17, 8, 0, 18, 19, 0, 19, 12, 0, 20, 12, 0, 21, 12, 0, 22, 12, 0, 23, 12, 0, 24, 12, 0, 25, 12, 0, 26, 26, 0, 27, 2, 0, 28, 2, 0, 29, 2, 0, 30, 2, 0, 31, 2, 0, 32, 2, 0, 33, 2, 0, 34, 2, 0, 35, 2, 0, 36, 2, 0, 37, 2, 0, 38, 2, 0, 39, 2, 0, 40, 2, 0, 41, 2, 0, 42, 2, 0, 43, 2, 0, 44, 2, 0, 45, 2, 0, 46, 2, 0, 47, 2, 0, 48, 2, 0, 49, 2, 0, 50, 2, 0, 51, 2, 0, 52, 2, 0, 53, 2, 0, 54, 2, 0, 55, 2, 0, 56, 2, 0, 57, 2, 0, 58, 2, 0, 59, 2, 0, 60, 2, 0, 61, 2, 0, 62, 2, 0, 63, 2, 0, 65536, 8, 0, 65537, 8, 0, 65538, 8, 0, 65539, 8, 0, 65540, 8, 0, 65541, 8, 0, 65542, 8, 0, 65543, 8, 0, 65544, 8, 0, 65545, 8, 0, 65546, 8, 0, 65547, 8, 0, 65548, 8, 0, 65549, 8, 0, 65550, 8, 0, 65551, 8, 0, 65552, 8, 0, 65553, 8, 0, 65554, 20, 0, 65555, 12, 0, 65556, 12, 0, 65557, 12, 0, 65558, 12, 0, 65559, 12, 0, 65560, 12, 0, 65561, 12, 0, 65562, 29, 0, 65563, 30, 0, 65564, 2, 0, 65565, 2, 0, 65566, 2, 0, 65567, 2, 0, 65568, 2, 0, 65569, 2, 0, 65570, 2, 0, 65571, 2, 0, 65572, 2, 0, 65573, 2, 0, 65574, 2, 0, 65575, 2, 0, 65576, 2, 0, 65577, 2, 0, 65578, 2, 0, 65579, 2, 0, 65580, 2, 0, 65581, 2, 0, 65582, 2, 0, 65583, 2, 0, 65584, 2, 0, 65585, 2, 0, 65586, 2, 0, 65587, 2, 0, 65588, 2, 0, 65589, 2, 0, 65590, 2, 0, 65591, 2, 0, 65592, 2, 0, 65593, 2, 0, 65594, 2, 0, 65595, 2, 0, 65596, 2, 0, 65597, 2, 0, 65598, 2, 0, 65599, 2, 0, 131072, 8, 0, 131073, 8, 0, 131074, 8, 0, 131075, 8, 0, 131076, 8, 0, 131077, 8, 0, 131078, 8, 0, 131079, 8, 0, 131080, 8, 0, 131081, 8, 0, 131082, 8, 0, 131083, 8, 0, 131084, 8, 0, 131085, 8, 0, 131086, 8, 0, 131087, 8, 0, 131088, 8, 0, 131089, 8, 0, 131090, 21, 0, 131091, 12, 0, 131092, 12, 0, 131093, 12, 0, 131094, 12, 0, 131095, 12, 0, 131096, 12, 0, 131097, 12, 0, 131098, 12, 0, 131099, 23, 0, 131100, 2, 0, 131101, 2, 0, 131102, 2, 0, 131103, 2, 0, 131104, 2, 0, 131105, 2, 0, 131106, 2, 0, 131107, 2, 0, 131108, 2, 0, 131109, 2, 0, 131110, 2, 0, 131111, 2, 0, 131112, 2, 0, 131113, 2, 0, 131114, 2, 0, 131115, 2, 0, 131116, 2, 0, 131117, 2, 0, 131118, 2, 0, 131119, 2, 0, 131120, 2, 0, 131121, 2, 0, 131122, 2, 0, 131123, 2, 0, 131124, 2, 0, 131125, 2, 0, 131126, 2, 0, 131127, 2, 0, 131128, 2, 0, 131129, 2, 0, 131130, 2, 0, 131131, 2, 0, 131132, 2, 0, 131133, 2, 0, 131134, 2, 0, 131135, 2, 0, 196608, 8, 0, 196609, 8, 0, 196610, 8, 0, 196611, 8, 0, 196612, 8, 0, 196613, 8, 0, 196614, 8, 0, 196615, 8, 0, 196616, 8, 0, 196617, 8, 0, 196618, 8, 0, 196619, 8, 0, 196620, 8, 0, 196621, 8, 0, 196622, 8, 0, 196623, 8, 0, 196624, 8, 0, 196625, 8, 0, 196626, 8, 0, 196627, 12, 0, 196628, 12, 0, 196629, 12, 0, 196630, 12, 0, 196631, 12, 0, 196632, 12, 0, 196633, 12, 0, 196635, 2, 0, 196636, 2, 0, 196637, 2, 0, 196638, 2, 0, 196639, 2, 0, 196640, 2, 0, 196641, 2, 0, 196642, 2, 0, 196643, 2, 0, 196644, 2, 0, 196645, 2, 0, 196646, 2, 0, 196647, 2, 0, 196648, 2, 0, 196649, 2, 0, 196650, 2, 0, 196651, 2, 0, 196652, 2, 0, 196653, 2, 0, 196654, 2, 0, 196655, 2, 0, 196656, 2, 0, 196657, 2, 0, 196658, 2, 0, 196659, 2, 0, 196660, 2, 0, 196661, 2, 0, 196662, 2, 0, 196663, 2, 0, 196664, 2, 0, 196665, 2, 0, 196666, 2, 0, 196667, 2, 0, 196668, 2, 0, 196669, 2, 0, 196670, 2, 0, 196671, 2, 0, 262144, 8, 0, 262145, 8, 0, 262146, 8, 0, 262147, 8, 0, 262148, 8, 0, 262149, 8, 0, 262150, 8, 0, 262151, 8, 0, 262152, 8, 0, 262153, 8, 0, 262154, 8, 0, 262155, 8, 0, 262156, 8, 0, 262157, 8, 0, 262158, 8, 0, 262159, 8, 0, 262160, 8, 0, 262161, 8, 0, 262162, 8, 0, 262166, 12, 0, 262175, 2, 0, 262176, 2, 0, 262177, 2, 0, 262178, 2, 0, 262179, 2, 0, 262180, 2, 0, 262181, 2, 0, 262182, 2, 0, 262183, 2, 0, 262184, 2, 0, 262185, 2, 0, 262186, 2, 0, 262187, 2, 0, 262188, 2, 0, 262189, 2, 0, 262190, 2, 0, 262191, 2, 0, 262192, 2, 0, 262193, 2, 0, 262194, 2, 0, 262195, 2, 0, 262196, 2, 0, 262197, 2, 0, 262198, 2, 0, 262199, 2, 0, 262200, 2, 0, 262201, 2, 0, 262202, 2, 0, 262203, 2, 0, 262204, 2, 0, 262205, 2, 0, 262206, 2, 0, 262207, 2, 0, 327680, 8, 0, 327681, 8, 0, 327682, 8, 0, 327683, 8, 0, 327684, 8, 0, 327685, 8, 0, 327686, 8, 0, 327687, 8, 0, 327688, 8, 0, 327689, 8, 0, 327690, 8, 0, 327691, 8, 0, 327692, 8, 0, 327693, 8, 0, 327694, 8, 0, 327695, 8, 0, 327696, 8, 0, 327697, 8, 0, 327698, 8, 0, 393216, 8, 0, 393217, 8, 0, 393218, 8, 0, 393219, 8, 0, 393220, 8, 0, 393221, 8, 0, 393222, 8, 0, 393223, 8, 0, 393224, 8, 0, 393225, 8, 0, 393226, 8, 0, 393227, 8, 0, 393228, 8, 0, 393229, 8, 0, 393230, 8, 0, 393231, 8, 0, 393232, 8, 0, 393233, 8, 0, 393234, 8, 0 )

[node name="Ground" parent="." index="1"]
tile_data = PoolIntArray( -720882, 0, 196612, -720881, 0, 131081, -720880, 0, 131081, -720879, 0, 131081, -720878, 0, 131081, -720877, 0, 131081, -720876, 0, 131081, -720875, 0, 131081, -720874, 0, 131081, -720873, 0, 131081, -720872, 0, 131081, -720871, 0, 131081, -720870, 0, 131081, -720869, 0, 131081, -720868, 0, 131081, -720867, 0, 131081, -720866, 0, 131081, -720865, 0, 131081, -720864, 0, 131081, -720863, 0, 131081, -720862, 0, 131081, -720861, 0, 131081, -720860, 0, 131081, -720859, 0, 131081, -720858, 0, 131081, -720857, 0, 131081, -720856, 0, 131081, -720855, 0, 131081, -720854, 0, 131081, -720853, 0, 131081, -720852, 0, 131081, -720851, 0, 131081, -720850, 0, 131081, -720849, 0, 131081, -720848, 0, 131081, -720847, 0, 131081, -720846, 0, 131081, -720845, 0, 131081, -720844, 0, 131081, -720843, 0, 131081, -720842, 0, 131081, -720841, 0, 131081, -720840, 0, 131081, -720839, 0, 131081, -720838, 0, 131081, -720837, 0, 131081, -720836, 0, 131081, -720835, 0, 131081, -720834, 0, 131081, -720833, 0, 131081, -720832, 0, 131081, -720831, 0, 196610, -655346, 0, 196608, -655345, 0, 327681, -655344, 0, 327681, -655343, 0, 327681, -655342, 0, 327681, -655341, 0, 327681, -655340, 0, 327681, -655339, 0, 327681, -655338, 0, 327681, -655337, 0, 327681, -655336, 0, 327681, -655335, 0, 327681, -655334, 0, 327681, -655333, 0, 327681, -655332, 0, 327681, -655331, 0, 327681, -655330, 0, 327681, -655329, 0, 327681, -655328, 0, 327681, -655327, 0, 327681, -655326, 0, 327681, -655325, 0, 327681, -655324, 0, 327681, -655323, 0, 327681, -655322, 0, 327681, -655321, 0, 327681, -655320, 0, 327681, -655319, 0, 327681, -655318, 0, 327681, -655317, 0, 327681, -655316, 0, 327681, -655315, 0, 327681, -655314, 0, 327681, -655313, 0, 327681, -655312, 0, 327681, -655311, 0, 327681, -655310, 0, 327681, -655309, 0, 327681, -655308, 0, 327681, -655307, 0, 327681, -655306, 0, 327681, -655305, 0, 327681, -655304, 0, 327681, -655303, 0, 327681, -655302, 0, 327681, -655301, 0, 327681, -655300, 0, 327681, -655299, 0, 327681, -655298, 0, 327681, -655297, 0, 327681, -655296, 0, 327681, -655295, 0, 131080, -589810, 0, 196608, -589809, 0, 327681, -589808, 0, 327681, -589807, 0, 327681, -589806, 0, 327681, -589805, 0, 327681, -589804, 0, 327681, -589803, 0, 327681, -589802, 0, 327681, -589801, 0, 327681, -589800, 0, 327681, -589799, 0, 327681, -589798, 0, 327681, -589797, 0, 327681, -589796, 0, 327681, -589795, 0, 327681, -589794, 0, 327681, -589793, 0, 327681, -589792, 0, 327681, -589791, 0, 327681, -589790, 0, 327681, -589789, 0, 327681, -589788, 0, 327681, -589787, 0, 327681, -589786, 0, 327681, -589785, 0, 327681, -589784, 0, 327681, -589783, 0, 327681, -589782, 0, 327681, -589781, 0, 327681, -589780, 0, 327681, -589779, 0, 327681, -589778, 0, 327681, -589777, 0, 327681, -589776, 0, 327681, -589775, 0, 327681, -589774, 0, 327681, -589773, 0, 327681, -589772, 0, 327681, -589771, 0, 327681, -589770, 0, 327681, -589769, 0, 327681, -589768, 0, 327681, -589767, 0, 327681, -589766, 0, 327681, -589765, 0, 327681, -589764, 0, 327681, -589763, 0, 327681, -589762, 0, 327681, -589761, 0, 327681, -589760, 0, 327681, -589759, 0, 131080, -524274, 0, 196608, -524273, 0, 327681, -524272, 0, 327681, -524271, 0, 327681, -524270, 0, 327681, -524269, 0, 327681, -524268, 0, 327681, -524267, 0, 327681, -524266, 0, 327681, -524265, 0, 327681, -524264, 0, 327681, -524263, 0, 327681, -524262, 0, 327681, -524261, 0, 327681, -524260, 0, 327681, -524259, 0, 327681, -524258, 0, 327681, -524257, 0, 327681, -524256, 0, 327681, -524255, 0, 327681, -524254, 0, 327681, -524253, 0, 327681, -524252, 0, 327681, -524251, 0, 327681, -524250, 0, 327681, -524249, 0, 327681, -524248, 0, 327681, -524247, 0, 327681, -524246, 0, 327681, -524245, 0, 327681, -524244, 0, 327681, -524243, 0, 327681, -524242, 0, 327681, -524241, 0, 327681, -524240, 0, 327681, -524239, 0, 327681, -524238, 0, 327681, -524237, 0, 327681, -524236, 0, 327681, -524235, 0, 327681, -524234, 0, 327681, -524233, 0, 327681, -524232, 0, 327681, -524231, 0, 327681, -524230, 0, 327681, -524229, 0, 327681, -524228, 0, 327681, -524227, 0, 327681, -524226, 0, 327681, -524225, 0, 327681, -524224, 0, 327681, -524223, 0, 131080, -458738, 0, 196608, -458737, 0, 327681, -458736, 0, 327681, -458735, 0, 327681, -458734, 0, 327681, -458733, 0, 327681, -458732, 0, 327681, -458731, 0, 327681, -458730, 0, 327681, -458729, 0, 327681, -458728, 0, 327681, -458727, 0, 327681, -458726, 0, 327681, -458725, 0, 327681, -458724, 0, 327681, -458723, 0, 327681, -458722, 0, 327681, -458721, 0, 327681, -458720, 0, 327681, -458719, 0, 327681, -458718, 0, 327681, -458717, 0, 327681, -458716, 0, 327681, -458715, 0, 327681, -458714, 0, 327681, -458713, 0, 327681, -458712, 0, 327681, -458711, 0, 327681, -458710, 0, 327681, -458709, 0, 327681, -458708, 0, 327681, -458707, 0, 327681, -458706, 0, 327681, -458705, 0, 327681, -458704, 0, 327681, -458703, 0, 327681, -458702, 0, 327681, -458701, 0, 327681, -458700, 0, 327681, -458699, 0, 327681, -458698, 0, 327681, -458697, 0, 327681, -458696, 0, 327681, -458695, 0, 327681, -458694, 0, 327681, -458693, 0, 327681, -458692, 0, 327681, -458691, 0, 327681, -458690, 0, 327681, -458689, 0, 327681, -458688, 0, 327681, -458687, 0, 131080, -327682, 0, 196612, -327681, 0, 131081, -393216, 0, 196610, -393202, 0, 196613, -393201, 0, 196609, -393200, 0, 196614, -393199, 0, 327681, -393198, 0, 327681, -393197, 0, 327681, -393196, 0, 327681, -393195, 0, 327681, -393194, 0, 327681, -393193, 0, 327681, -393192, 0, 327681, -393191, 0, 327681, -393190, 0, 327681, -393189, 0, 327681, -393188, 0, 327681, -393187, 0, 327681, -393186, 0, 327681, -393185, 0, 327681, -393184, 0, 327681, -393183, 0, 327681, -393182, 0, 327681, -393181, 0, 327681, -393180, 0, 327681, -393179, 0, 327681, -393178, 0, 327681, -393177, 0, 327681, -393176, 0, 327681, -393175, 0, 327681, -393174, 0, 327681, -393173, 0, 327681, -393172, 0, 327681, -393171, 0, 327681, -393170, 0, 327681, -393169, 0, 327681, -393168, 0, 327681, -393167, 0, 327681, -393166, 0, 327681, -393165, 0, 327681, -393164, 0, 327681, -393163, 0, 327681, -393162, 0, 327681, -393161, 0, 327681, -393160, 0, 327681, -393159, 0, 327681, -393158, 0, 327681, -393157, 0, 327681, -393156, 0, 327681, -393155, 0, 327681, -393154, 0, 327681, -393153, 0, 327681, -393152, 0, 327681, -393151, 0, 131080, -262146, 0, 196608, -262145, 0, 327681, -327680, 0, 131080, -327664, 0, 196613, -327663, 0, 196609, -327662, 0, 196614, -327661, 0, 327681, -327660, 0, 327681, -327659, 0, 327681, -327658, 0, 327681, -327657, 0, 327681, -327656, 0, 327681, -327655, 0, 327681, -327654, 0, 327681, -327653, 0, 327681, -327652, 0, 327681, -327651, 0, 327681, -327650, 0, 327681, -327649, 0, 327681, -327648, 0, 327681, -327647, 0, 327681, -327646, 0, 327681, -327645, 0, 327681, -327644, 0, 327681, -327643, 0, 327681, -327642, 0, 327681, -327641, 0, 327681, -327640, 0, 327681, -327639, 0, 327681, -327638, 0, 327681, -327637, 0, 327681, -327636, 0, 327681, -327635, 0, 327681, -327634, 0, 327681, -327633, 0, 327681, -327632, 0, 327681, -327631, 0, 327681, -327630, 0, 327681, -327629, 0, 327681, -327628, 0, 327681, -327627, 0, 327681, -327626, 0, 327681, -327625, 0, 327681, -327624, 0, 327681, -327623, 0, 327681, -327622, 0, 327681, -327621, 0, 327681, -327620, 0, 327681, -327619, 0, 327681, -327618, 0, 327681, -327617, 0, 327681, -327616, 0, 327681, -327615, 0, 131080, -196610, 0, 196608, -196609, 0, 327681, -262144, 0, 131080, -262126, 0, 196613, -262125, 0, 196614, -262124, 0, 327681, -262123, 0, 327681, -262122, 0, 327681, -262121, 0, 327681, -262120, 0, 327681, -262119, 0, 327681, -262118, 0, 327681, -262117, 0, 327681, -262116, 0, 327681, -262115, 0, 327681, -262114, 0, 327681, -262113, 0, 327681, -262112, 0, 327681, -262111, 0, 327681, -262110, 0, 327681, -262109, 0, 196615, -262108, 0, 196609, -262107, 0, 196609, -262106, 0, 196609, -262105, 0, 196609, -262104, 0, 196609, -262103, 0, 196609, -262102, 0, 196609, -262101, 0, 196609, -262100, 0, 196609, -262099, 0, 196609, -262098, 0, 196609, -262097, 0, 196609, -262096, 0, 196609, -262095, 0, 196609, -262094, 0, 196609, -262093, 0, 196609, -262092, 0, 196609, -262091, 0, 196609, -262090, 0, 196609, -262089, 0, 196609, -262088, 0, 196609, -262087, 0, 196609, -262086, 0, 196609, -262085, 0, 196609, -262084, 0, 196609, -262083, 0, 196609, -262082, 0, 196609, -262081, 0, 196614, -262080, 0, 327681, -262079, 0, 131080, -131074, 0, 196608, -131073, 0, 327681, -196608, 0, 131080, -196589, 0, 196613, -196588, 0, 196609, -196587, 0, 196609, -196586, 0, 196609, -196585, 0, 196609, -196584, 0, 196609, -196583, 0, 196609, -196582, 0, 196609, -196581, 0, 196609, -196580, 0, 196614, -196579, 0, 327681, -196578, 0, 327681, -196577, 0, 327681, -196576, 0, 327681, -196575, 0, 196615, -196574, 0, 196609, -196573, 0, 196611, -196545, 0, 196608, -196544, 0, 327681, -196543, 0, 131080, -65538, 0, 196608, -65537, 0, 327681, -131072, 0, 131080, -131044, 0, 196613, -131043, 0, 196614, -131042, 0, 327681, -131041, 0, 327681, -131040, 0, 196615, -131039, 0, 196611, -131009, 0, 196608, -131008, 0, 327681, -131007, 0, 131080, -2, 0, 196608, -1, 0, 327681, -65536, 0, 131080, -65507, 0, 196608, -65506, 0, 196615, -65505, 0, 196609, -65504, 0, 196611, -65473, 0, 196608, -65472, 0, 327681, -65471, 0, 131080, 65534, 0, 196608, 65535, 0, 327681, 0, 0, 131080, 29, 0, 196613, 30, 0, 196611, 63, 0, 196608, 64, 0, 327681, 65, 0, 131080, 131070, 0, 196608, 131071, 0, 327681, 65536, 0, 131080, 65593, 0, 196612, 65594, 0, 131081, 65595, 0, 131081, 65596, 0, 131081, 65597, 0, 131081, 65598, 0, 131081, 65599, 0, 196617, 65600, 0, 327681, 65601, 0, 131080, 196606, 0, 196608, 196607, 0, 327681, 131072, 0, 131080, 131110, 0, 196612, 131111, 0, 131081, 131112, 0, 131081, 131113, 0, 131081, 131114, 0, 131081, 131115, 0, 131081, 131116, 0, 131081, 131117, 0, 131081, 131118, 0, 131081, 131119, 0, 131081, 131120, 0, 131081, 131121, 0, 131081, 131122, 0, 131081, 131123, 0, 131081, 131124, 0, 131081, 131125, 0, 131081, 131126, 0, 131081, 131127, 0, 131081, 131128, 0, 131081, 131129, 0, 196617, 131130, 0, 327681, 131131, 0, 327681, 131132, 0, 327681, 131133, 0, 327681, 131134, 0, 327681, 131135, 0, 327681, 131136, 0, 327681, 131137, 0, 131080, 262142, 0, 196608, 262143, 0, 327681, 196608, 0, 131080, 196624, 0, 196612, 196625, 0, 131081, 196626, 0, 131081, 196627, 0, 131081, 196628, 0, 131081, 196629, 0, 131081, 196630, 0, 131081, 196631, 0, 131081, 196632, 0, 131081, 196633, 0, 131081, 196634, 0, 131081, 196635, 0, 131081, 196636, 0, 131081, 196637, 0, 131081, 196638, 0, 131081, 196639, 0, 131081, 196640, 0, 131081, 196641, 0, 131081, 196642, 0, 131081, 196643, 0, 131081, 196644, 0, 131081, 196645, 0, 131081, 196646, 0, 196617, 196647, 0, 327681, 196648, 0, 327681, 196649, 0, 327681, 196650, 0, 327681, 196651, 0, 327681, 196652, 0, 327681, 196653, 0, 327681, 196654, 0, 327681, 196655, 0, 327681, 196656, 0, 327681, 196657, 0, 327681, 196658, 0, 327681, 196659, 0, 327681, 196660, 0, 327681, 196661, 0, 327681, 196662, 0, 327681, 196663, 0, 327681, 196664, 0, 327681, 196665, 0, 327681, 196666, 0, 327681, 196667, 0, 327681, 196668, 0, 327681, 196669, 0, 327681, 196670, 0, 327681, 196671, 0, 327681, 196672, 0, 327681, 196673, 0, 131080, 327678, 0, 196608, 327679, 0, 327681, 262144, 0, 131080, 262154, 0, 196612, 262155, 0, 131081, 262156, 0, 131081, 262157, 0, 131081, 262158, 0, 131081, 262159, 0, 131081, 262160, 0, 196617, 262161, 0, 327681, 262162, 0, 327681, 262163, 0, 327681, 262164, 0, 327681, 262165, 0, 327681, 262166, 0, 327681, 262167, 0, 327681, 262168, 0, 327681, 262169, 0, 327681, 262170, 0, 327681, 262171, 0, 327681, 262172, 0, 327681, 262173, 0, 327681, 262174, 0, 327681, 262175, 0, 327681, 262176, 0, 327681, 262177, 0, 327681, 262178, 0, 327681, 262179, 0, 327681, 262180, 0, 327681, 262181, 0, 327681, 262182, 0, 327681, 262183, 0, 327681, 262184, 0, 327681, 262185, 0, 327681, 262186, 0, 327681, 262187, 0, 327681, 262188, 0, 327681, 262189, 0, 327681, 262190, 0, 327681, 262191, 0, 327681, 262192, 0, 327681, 262193, 0, 327681, 262194, 0, 327681, 262195, 0, 327681, 262196, 0, 327681, 262197, 0, 327681, 262198, 0, 327681, 262199, 0, 327681, 262200, 0, 327681, 262201, 0, 327681, 262202, 0, 327681, 262203, 0, 327681, 262204, 0, 327681, 262205, 0, 327681, 262206, 0, 327681, 262207, 0, 327681, 262208, 0, 327681, 262209, 0, 131080, 393214, 0, 196608, 393215, 0, 327681, 327680, 0, 196616, 327681, 0, 131081, 327682, 0, 131081, 327683, 0, 131081, 327684, 0, 131081, 327685, 0, 131081, 327686, 0, 131081, 327687, 0, 131081, 327688, 0, 131081, 327689, 0, 131081, 327690, 0, 196617, 327691, 0, 327681, 327692, 0, 327681, 327693, 0, 327681, 327694, 0, 327681, 327695, 0, 327681, 327696, 0, 327681, 327697, 0, 327681, 327698, 0, 327681, 327699, 0, 327681, 327700, 0, 327681, 327701, 0, 327681, 327702, 0, 327681, 327703, 0, 327681, 327704, 0, 327681, 327705, 0, 327681, 327706, 0, 327681, 327707, 0, 327681, 327708, 0, 327681, 327709, 0, 327681, 327710, 0, 327681, 327711, 0, 327681, 327712, 0, 327681, 327713, 0, 327681, 327714, 0, 327681, 327715, 0, 327681, 327716, 0, 327681, 327717, 0, 327681, 327718, 0, 327681, 327719, 0, 327681, 327720, 0, 327681, 327721, 0, 327681, 327722, 0, 327681, 327723, 0, 327681, 327724, 0, 327681, 327725, 0, 327681, 327726, 0, 327681, 327727, 0, 327681, 327728, 0, 327681, 327729, 0, 327681, 327730, 0, 327681, 327731, 0, 327681, 327732, 0, 327681, 327733, 0, 327681, 327734, 0, 327681, 327735, 0, 327681, 327736, 0, 327681, 327737, 0, 327681, 327738, 0, 327681, 327739, 0, 327681, 327740, 0, 327681, 327741, 0, 327681, 327742, 0, 327681, 327743, 0, 327681, 327744, 0, 327681, 327745, 0, 131080, 458750, 0, 196613, 458751, 0, 196609, 393216, 0, 196609, 393217, 0, 196609, 393218, 0, 196609, 393219, 0, 196609, 393220, 0, 196609, 393221, 0, 196609, 393222, 0, 196609, 393223, 0, 196609, 393224, 0, 196609, 393225, 0, 196609, 393226, 0, 196609, 393227, 0, 196609, 393228, 0, 196609, 393229, 0, 196609, 393230, 0, 196609, 393231, 0, 196609, 393232, 0, 196609, 393233, 0, 196609, 393234, 0, 196609, 393235, 0, 196609, 393236, 0, 196609, 393237, 0, 196609, 393238, 0, 196609, 393239, 0, 196609, 393240, 0, 196609, 393241, 0, 196609, 393242, 0, 196609, 393243, 0, 196609, 393244, 0, 196609, 393245, 0, 196609, 393246, 0, 196609, 393247, 0, 196609, 393248, 0, 196609, 393249, 0, 196609, 393250, 0, 196609, 393251, 0, 196609, 393252, 0, 196609, 393253, 0, 196609, 393254, 0, 196609, 393255, 0, 196609, 393256, 0, 196609, 393257, 0, 196609, 393258, 0, 196609, 393259, 0, 196609, 393260, 0, 196609, 393261, 0, 196609, 393262, 0, 196609, 393263, 0, 196609, 393264, 0, 196609, 393265, 0, 196609, 393266, 0, 196609, 393267, 0, 196609, 393268, 0, 196609, 393269, 0, 196609, 393270, 0, 196609, 393271, 0, 196609, 393272, 0, 196609, 393273, 0, 196609, 393274, 0, 196609, 393275, 0, 196609, 393276, 0, 196609, 393277, 0, 196609, 393278, 0, 196609, 393279, 0, 196609, 393280, 0, 196609, 393281, 0, 196611 )

[node name="Props" parent="." index="2"]
tile_data = PoolIntArray( -327638, 9, 0, -327626, 8, 0, -196572, 13, 0, -196570, 12, 0, -196566, 27, 0, -196563, 13, 0, -196561, 14, 0, -196559, 27, 0, -196557, 12, 0, -196555, 13, 0, -196553, 14, 0, -196550, 27, 0, -196548, 13, 0, -196546, 14, 0, -131038, 14, 0, -131030, 28, 0, -131023, 28, 0, -131014, 28, 0, -65494, 28, 0, -65487, 28, 0, -65478, 28, 0, 39, 16, 0, 42, 28, 0, 46, 16, 0, 48, 15, 0, 49, 28, 0, 51, 15, 0, 54, 16, 0, 58, 29, 0, 65577, 37, 0, 65578, 29, 0, 65585, 29, 0, 131088, 1, 0, 131089, 7, 0, 131090, 4, 0, 131091, 5, 0, 131092, 1, 0, 131093, 7, 0, 131094, 5, 0, 131095, 3, 0, 131097, 2, 0, 131098, 4, 0, 131099, 5, 0, 131100, 7, 0, 131104, 37, 0, 131109, 19, 0, 196618, 0, 0, 196619, 4, 0, 196620, 0, 0, 196621, 3, 0, 196622, 5, 0, 196623, 6, 0, 196649, 10, 0, 196666, 11, 0, 262145, 3, 0, 262146, 536870919, 0, 262147, 536870915, 0, 262148, 5, 0, 262149, 4, 0, 262150, 7, 0, 262151, 0, 0, 262152, 3, 0, 262153, 5, 0, 262180, 8, 0, 262190, 11, 0, 262196, 10, 0 )

[node name="FlyingBat" parent="AnimatedProps" index="0" instance=ExtResource( 2 )]
position = Vector2( 448, -16 )

[node name="FlyingBat2" parent="AnimatedProps" index="1" instance=ExtResource( 2 )]
position = Vector2( 472, -8 )

[node name="FlyingBat3" parent="AnimatedProps" index="2" instance=ExtResource( 2 )]
position = Vector2( 496, -24 )
direction = Vector2( -1, -0.05 )

[node name="FlyingBat4" parent="AnimatedProps" index="3" instance=ExtResource( 2 )]
position = Vector2( 480, -16 )
direction = Vector2( -1, 0.05 )

[node name="FlyingBat5" parent="AnimatedProps" index="4" instance=ExtResource( 2 )]
position = Vector2( 728, -24 )

[node name="FlyingBat6" parent="AnimatedProps" index="5" instance=ExtResource( 2 )]
position = Vector2( 760, -16 )
direction = Vector2( -1, 0.05 )

[node name="FlyingBat7" parent="AnimatedProps" index="6" instance=ExtResource( 2 )]
position = Vector2( 776, -24 )
direction = Vector2( -1, 0.03 )

[node name="HangingBat" parent="AnimatedProps" index="7" instance=ExtResource( 3 )]
position = Vector2( 656, -48 )

[node name="HangingBat2" parent="AnimatedProps" index="8" instance=ExtResource( 3 )]
position = Vector2( 648, -48 )

[node name="HangingBat3" parent="AnimatedProps" index="9" instance=ExtResource( 3 )]
position = Vector2( 704, -48 )

[node name="HangingBat4" parent="AnimatedProps" index="10" instance=ExtResource( 3 )]
position = Vector2( 776, -48 )

[node name="HangingBat5" parent="AnimatedProps" index="11" instance=ExtResource( 3 )]
position = Vector2( 832, -48 )

[node name="HangingBat6" parent="AnimatedProps" index="12" instance=ExtResource( 3 )]
position = Vector2( 840, -48 )

[node name="HangingBat7" parent="AnimatedProps" index="13" instance=ExtResource( 3 )]
position = Vector2( 848, -48 )

[node name="Player" parent="map" index="0"]
position = Vector2( 58, 66 )

[node name="PlayerCamera" parent="map" index="1"]
limit_left = 8
limit_top = -104
limit_right = 1000
limit_bottom = 88

[node name="Exit" parent="map" index="2"]
position = Vector2( 976, -5.4346 )
next_stage = ExtResource( 4 )

[node name="Label" parent="map" index="3" instance=ExtResource( 5 )]
margin_left = 360.0
margin_right = 466.0

[node name="Label2" type="Label" parent="map" index="4"]
margin_left = 320.0
margin_top = 46.3654
margin_right = 537.0
margin_bottom = 88.3654
custom_fonts/font = SubResource( 1 )
custom_colors/font_color = Color( 0, 0, 0, 1 )
text = "Blocks? What if there
was nothing instead?
"

[node name="Label4" type="Label" parent="map" index="5"]
margin_left = 560.0
margin_top = -32.0
margin_right = 777.0
margin_bottom = 10.0
custom_fonts/font = SubResource( 1 )
custom_colors/font_color = Color( 0.862745, 0.960784, 1, 1 )
text = "Oh! That's convenient."

[node name="Label3" type="Label" parent="map" index="6"]
margin_left = 16.0
margin_top = -32.0
margin_right = 213.0
margin_bottom = 10.0
custom_fonts/font = SubResource( 1 )
custom_colors/font_color = Color( 0.862745, 0.960784, 1, 1 )
text = "That's right, you
have nothing. But
is it useless?"

[node name="Block" parent="map" index="7" instance=ExtResource( 7 )]
position = Vector2( 464, 16 )

[node name="Block2" parent="map" index="8" instance=ExtResource( 7 )]
position = Vector2( 464, 32 )

[node name="Block3" parent="map" index="9" instance=ExtResource( 7 )]
position = Vector2( 480, 16 )

[node name="Block4" parent="map" index="10" instance=ExtResource( 7 )]
position = Vector2( 480, 32 )

[node name="Crawler" parent="map" index="11" instance=ExtResource( 8 )]
position = Vector2( 696, 16 )

[node name="Crawler2" parent="map" index="12" instance=ExtResource( 8 )]
position = Vector2( 832, 16 )

[node name="cursor" parent="." index="5"]
position = Vector2( 57.8621, 66 )

[node name="Preview" parent="." index="6"]
position = Vector2( 58, 66 )

[node name="FlyingBat" parent="." index="9" instance=ExtResource( 2 )]
position = Vector2( 1008, -40 )

[node name="FlyingBat2" parent="." index="10" instance=ExtResource( 2 )]
position = Vector2( 1016, -32 )
speed = 75.0

[node name="FlyingBat3" parent="." index="11" instance=ExtResource( 2 )]
position = Vector2( 1016, -48 )
speed = 85.0
