[gd_resource type="SpriteFrames" load_steps=4 format=2]

[ext_resource path="res://assets/sprites/crawler.png" type="Texture" id=1]
[ext_resource path="res://assets/sprites/crawlerWalk0000.png" type="Texture" id=2]
[ext_resource path="res://assets/sprites/crawlerWalk0001.png" type="Texture" id=3]

[resource]
animations = [ {
"frames": [ ExtResource( 1 ) ],
"loop": true,
"name": "idle",
"speed": 5.0
}, {
"frames": [ ExtResource( 2 ), ExtResource( 3 ) ],
"loop": true,
"name": "walking",
"speed": 10.0
} ]
