[gd_scene load_steps=4 format=2]

[ext_resource path="res://spaces/preview/preview.gd" type="Script" id=1]
[ext_resource path="res://assets/sprites/target.png" type="Texture" id=2]

[sub_resource type="RectangleShape2D" id=1]
extents = Vector2( 4, 4 )

[node name="Preview" type="Position2D"]
script = ExtResource( 1 )

[node name="Target" type="Sprite" parent="."]
texture = ExtResource( 2 )
vframes = 2

[node name="Area" type="Area2D" parent="Target"]

[node name="CollisionShape2D" type="CollisionShape2D" parent="Target/Area"]
shape = SubResource( 1 )
