[gd_scene load_steps=3 format=2]

[ext_resource path="res://assets/sprites/Spritesheet3.png" type="Texture" id=1]

[sub_resource type="Animation" id=1]
resource_name = "Dropping"
length = 0.8
step = 0.05
tracks/0/type = "value"
tracks/0/path = NodePath(".:frame")
tracks/0/interp = 1
tracks/0/loop_wrap = true
tracks/0/imported = false
tracks/0/enabled = true
tracks/0/keys = {
"times": PoolRealArray( 0, 0.2, 0.35, 0.5, 0.6 ),
"transitions": PoolRealArray( 0.999998, 1, 1, 1, 1 ),
"update": 1,
"values": [ 26, 27, 28, 29, 30 ]
}

[node name="Backpack" type="Sprite" groups=[
"backpack",
]]
texture = ExtResource( 1 )
vframes = 8
hframes = 7
frame = 26

[node name="AnimationPlayer" type="AnimationPlayer" parent="."]
autoplay = "Dropping"
anims/Dropping = SubResource( 1 )
