[gd_scene load_steps=15 format=2]

[ext_resource path="res://spaces/stages/base_stage.tscn" type="PackedScene" id=1]
[ext_resource path="res://spaces/tilemaps/props.tscn" type="PackedScene" id=2]
[ext_resource path="res://spaces/stages/scenery/torch.tscn" type="PackedScene" id=3]
[ext_resource path="res://spaces/stages/scenery/Spider.tscn" type="PackedScene" id=4]
[ext_resource path="res://spaces/stages/scenery/HangingBat.tscn" type="PackedScene" id=5]
[ext_resource path="res://actors/equipments/boots/boots.tscn" type="PackedScene" id=6]
[ext_resource path="res://actors/equipments/key/key.tscn" type="PackedScene" id=7]
[ext_resource path="res://actors/props/gate/gate.tscn" type="PackedScene" id=8]
[ext_resource path="res://spaces/stages/new_stages/stage_08/main.tscn" type="PackedScene" id=9]
[ext_resource path="res://actors/equipments/box/box.tscn" type="PackedScene" id=10]
[ext_resource path="res://actors/props/block/block.tscn" type="PackedScene" id=11]
[ext_resource path="res://actors/props/spikes/spikes.tscn" type="PackedScene" id=12]
[ext_resource path="res://actors/monsters/crawler/crawler.tscn" type="PackedScene" id=13]
[ext_resource path="res://actors/monsters/goblin_witch/goblin_witch.tscn" type="PackedScene" id=14]

[node name="space" instance=ExtResource( 1 )]

[node name="Background" parent="." index="0"]
tile_data = PoolIntArray( -393215, 1, 0, -393214, 0, 0, -393213, 1, 0, -393212, 1, 0, -393211, 0, 0, -393210, 0, 0, -393209, 0, 0, -393208, 0, 0, -393207, 0, 0, -393206, 2, 0, -393205, 0, 0, -393204, 0, 0, -393203, 0, 0, -393202, 0, 0, -393201, 1, 0, -393200, 0, 0, -393199, 0, 0, -393198, 0, 0, -393197, 0, 0, -393196, 1, 0, -393195, 1, 0, -393194, 0, 0, -393193, 1, 0, -393192, 1, 0, -393191, 2, 0, -393186, 1, 0, -393185, 1, 0, -393184, 1, 0, -393183, 1, 0, -393182, 1, 0, -393181, 1, 0, -393180, 1, 0, -393179, 1, 0, -393178, 1, 0, -393177, 1, 0, -327679, 1, 0, -327678, 1, 0, -327677, 0, 0, -327676, 1, 0, -327675, 1, 0, -327674, 1, 0, -327673, 1, 0, -327672, 1, 0, -327671, 0, 0, -327670, 2, 0, -327669, 2, 0, -327668, 1, 0, -327667, 1, 0, -327666, 1, 0, -327665, 1, 0, -327664, 1, 0, -327663, 0, 0, -327662, 0, 0, -327661, 0, 0, -327660, 1, 0, -327659, 1, 0, -327658, 0, 0, -327657, 1, 0, -327656, 1, 0, -327655, 2, 0, -327651, 0, 0, -327650, 0, 0, -327649, 0, 0, -327648, 1, 0, -327647, 1, 0, -327646, 0, 0, -327645, 0, 0, -327644, 0, 0, -327643, 0, 0, -327642, 0, 0, -327641, 0, 0, -262143, 2, 0, -262142, 2, 0, -262141, 0, 0, -262140, 1, 0, -262139, 1, 0, -262138, 2, 0, -262137, 1, 0, -262136, 1, 0, -262135, 0, 0, -262134, 0, 0, -262133, 2, 0, -262132, 1, 0, -262131, 2, 0, -262130, 2, 0, -262129, 2, 0, -262128, 1, 0, -262127, 0, 0, -262126, 0, 0, -262124, 0, 0, -262123, 0, 0, -262121, 1, 0, -262120, 1, 0, -262119, 1, 0, -262116, 2, 0, -262115, 2, 0, -262114, 1, 0, -262113, 1, 0, -262112, 1, 0, -262111, 2, 0, -262110, 2, 0, -262109, 0, 0, -262108, 0, 0, -262107, 0, 0, -262106, 2, 0, -262105, 2, 0, -196607, 2, 0, -196606, 0, 0, -196605, 0, 0, -196604, 0, 0, -196603, 0, 0, -196602, 2, 0, -196601, 1, 0, -196600, 1, 0, -196599, 0, 0, -196598, 0, 0, -196597, 0, 0, -196596, 0, 0, -196595, 2, 0, -196594, 2, 0, -196593, 2, 0, -196592, 1, 0, -196591, 0, 0, -196590, 0, 0, -196585, 1, 0, -196584, 1, 0, -196583, 1, 0, -196582, 1, 0, -196581, 1, 0, -196580, 1, 0, -196579, 1, 0, -196578, 1, 0, -196575, 0, 0, -196574, 0, 0, -196573, 0, 0, -131071, 2, 0, -131070, 0, 0, -131069, 2, 0, -131068, 2, 0, -131067, 2, 0, -131066, 1, 0, -131065, 1, 0, -131064, 1, 0, -131063, 1, 0, -131062, 0, 0, -131061, 0, 0, -131060, 0, 0, -131059, 0, 0, -131058, 2, 0, -131057, 2, 0, -131056, 2, 0, -131055, 1, 0, -131054, 0, 0, -131053, 2, 0, -131052, 1, 0, -131051, 1, 0, -131050, 2, 0, -131049, 1, 0, -131048, 1, 0, -131047, 2, 0, -131046, 0, 0, -131045, 1, 0, -131044, 1, 0, -131043, 2, 0, -131040, 0, 0, -131039, 0, 0, -65535, 2, 0, -65534, 0, 0, -65533, 0, 0, -65532, 0, 0, -65531, 0, 0, -65530, 2, 0, -65529, 1, 0, -65528, 0, 0, -65527, 1, 0, -65526, 0, 0, -65525, 1, 0, -65524, 0, 0, -65523, 0, 0, -65522, 1, 0, -65521, 2, 0, -65520, 2, 0, -65519, 1, 0, -65518, 1, 0, -65517, 2, 0, -65516, 1, 0, -65515, 1, 0, -65514, 2, 0, -65513, 1, 0, -65512, 1, 0, -65511, 2, 0, -65510, 0, 0, -65509, 2, 0, -65508, 2, 0, -65507, 2, 0, 1, 2, 0, 2, 2, 0, 3, 1, 0, 4, 1, 0, 5, 0, 0, 6, 2, 0, 7, 2, 0, 8, 1, 0, 9, 0, 0, 10, 1, 0, 11, 0, 0, 12, 1, 0, 13, 1, 0, 14, 1, 0, 15, 2, 0, 16, 2, 0, 17, 2, 0, 18, 2, 0, 19, 14, 0, 20, 2, 0, 21, 2, 0, 22, 2, 0, 23, 1, 0, 24, 1, 0, 25, 1, 0, 26, 2, 0, 27, 2, 0, 65537, 1, 0, 65538, 2, 0, 65539, 2, 0, 65540, 1, 0, 65541, 0, 0, 65542, 0, 0, 65543, 1, 0, 65544, 2, 0, 65545, 1, 0, 65546, 0, 0, 65547, 1, 0, 65548, 2, 0, 65549, 0, 0, 65550, 1, 0, 65551, 1, 0, 65552, 1, 0, 65553, 1, 0, 65554, 2, 0, 65555, 15, 0, 65556, 0, 0, 65557, 2, 0, 65558, 1, 0, 65559, 1, 0, 65560, 1, 0, 65561, 1, 0, 131073, 1, 0, 131074, 1, 0, 131075, 2, 0, 131076, 1, 0, 131077, 1, 0, 131078, 1, 0, 131079, 0, 0, 131080, 2, 0, 131081, 2, 0, 131082, 2, 0, 131083, 0, 0, 131084, 0, 0, 131085, 0, 0, 131086, 0, 0, 131087, 0, 0, 131088, 0, 0, 131089, 0, 0, 131090, 14, 0, 131091, 13, 0, 131092, 0, 0, 131093, 2, 0, 131094, 1, 0, 131095, 14, 0, 131096, 1, 0, 131097, 1, 0, 196609, 1, 0, 196610, 1, 0, 196611, 1, 0, 196612, 2, 0, 196613, 1, 0, 196614, 1, 0, 196615, 0, 0, 196616, 0, 0, 196617, 0, 0, 196618, 0, 0, 196619, 0, 0, 196620, 1, 0, 196621, 0, 0, 196622, 2, 0, 196623, 1, 0, 196624, 1, 0, 196625, 0, 0, 196626, 15, 0, 196627, 16, 0, 196628, 1, 0, 196629, 14, 0, 196630, 1, 0, 196631, 15, 0, 196632, 0, 0, 196633, 1, 0, 262145, 0, 0, 262146, 1, 0, 262147, 1, 0, 262148, 1, 0, 262149, 2, 0, 262150, 1, 0, 262151, 0, 0, 262152, 0, 0, 262153, 2, 0, 262154, 2, 0, 262155, 2, 0, 262156, 1, 0, 262157, 2, 0, 262158, 0, 0, 262159, 0, 0, 262160, 1, 0, 262161, 1, 0, 262162, 13, 0, 262163, 15, 0, 262164, 1, 0, 262165, 15, 0, 262166, 0, 0, 262167, 16, 0, 262168, 0, 0, 262169, 2, 0, 327681, 2, 0, 327682, 0, 0, 327683, 1, 0, 327684, 1, 0 )

[node name="Ground" parent="." index="1"]
tile_data = PoolIntArray( -720897, 0, 196612, -786432, 0, 131081, -786431, 0, 131081, -786430, 0, 131081, -786429, 0, 131081, -786428, 0, 131081, -786427, 0, 131081, -786426, 0, 131081, -786425, 0, 131081, -786424, 0, 131081, -786423, 0, 131081, -786422, 0, 131081, -786421, 0, 131081, -786420, 0, 131081, -786419, 0, 131081, -786418, 0, 131081, -786417, 0, 131081, -786416, 0, 131081, -786415, 0, 131081, -786414, 0, 131081, -786413, 0, 131081, -786412, 0, 131081, -786411, 0, 131081, -786410, 0, 131081, -786409, 0, 131081, -786408, 0, 131081, -786407, 0, 131081, -786406, 0, 131081, -786405, 0, 131081, -786404, 0, 131081, -786403, 0, 131081, -786402, 0, 131081, -786401, 0, 131081, -786400, 0, 131081, -786399, 0, 131081, -786398, 0, 131081, -786397, 0, 131081, -786396, 0, 131081, -786395, 0, 131081, -786394, 0, 131081, -786393, 0, 131081, -786392, 0, 131081, -786391, 0, 131081, -786390, 0, 196610, -655361, 0, 196608, -720896, 0, 327681, -720895, 0, 327681, -720894, 0, 327681, -720893, 0, 327681, -720892, 0, 327681, -720891, 0, 327681, -720890, 0, 327681, -720889, 0, 327681, -720888, 0, 327681, -720887, 0, 327681, -720886, 0, 327681, -720885, 0, 327681, -720884, 0, 327681, -720883, 0, 327681, -720882, 0, 327681, -720881, 0, 327681, -720880, 0, 327681, -720879, 0, 327681, -720878, 0, 327681, -720877, 0, 327681, -720876, 0, 327681, -720875, 0, 327681, -720874, 0, 327681, -720873, 0, 327681, -720872, 0, 327681, -720871, 0, 327681, -720870, 0, 327681, -720869, 0, 327681, -720868, 0, 327681, -720867, 0, 327681, -720866, 0, 327681, -720865, 0, 327681, -720864, 0, 327681, -720863, 0, 327681, -720862, 0, 327681, -720861, 0, 327681, -720860, 0, 327681, -720859, 0, 327681, -720858, 0, 327681, -720857, 0, 327681, -720856, 0, 327681, -720855, 0, 327681, -720854, 0, 131080, -589825, 0, 196608, -655360, 0, 327681, -655359, 0, 327681, -655358, 0, 327681, -655357, 0, 327681, -655356, 0, 327681, -655355, 0, 327681, -655354, 0, 327681, -655353, 0, 327681, -655352, 0, 327681, -655351, 0, 327681, -655350, 0, 327681, -655349, 0, 327681, -655348, 0, 327681, -655347, 0, 327681, -655346, 0, 327681, -655345, 0, 327681, -655344, 0, 327681, -655343, 0, 327681, -655342, 0, 327681, -655341, 0, 327681, -655340, 0, 327681, -655339, 0, 327681, -655338, 0, 327681, -655337, 0, 327681, -655336, 0, 327681, -655335, 0, 327681, -655334, 0, 327681, -655333, 0, 327681, -655332, 0, 327681, -655331, 0, 327681, -655330, 0, 327681, -655329, 0, 327681, -655328, 0, 327681, -655327, 0, 327681, -655326, 0, 327681, -655325, 0, 327681, -655324, 0, 327681, -655323, 0, 327681, -655322, 0, 327681, -655321, 0, 327681, -655320, 0, 327681, -655319, 0, 327681, -655318, 0, 131080, -524289, 0, 196608, -589824, 0, 327681, -589823, 0, 327681, -589822, 0, 327681, -589821, 0, 327681, -589820, 0, 327681, -589819, 0, 327681, -589818, 0, 327681, -589817, 0, 327681, -589816, 0, 327681, -589815, 0, 327681, -589814, 0, 327681, -589813, 0, 327681, -589812, 0, 327681, -589811, 0, 327681, -589810, 0, 327681, -589809, 0, 327681, -589808, 0, 327681, -589807, 0, 327681, -589806, 0, 327681, -589805, 0, 327681, -589804, 0, 327681, -589803, 0, 327681, -589802, 0, 327681, -589801, 0, 327681, -589800, 0, 327681, -589799, 0, 327681, -589798, 0, 327681, -589797, 0, 327681, -589796, 0, 327681, -589795, 0, 327681, -589794, 0, 327681, -589793, 0, 327681, -589792, 0, 327681, -589791, 0, 327681, -589790, 0, 327681, -589789, 0, 327681, -589788, 0, 327681, -589787, 0, 327681, -589786, 0, 327681, -589785, 0, 327681, -589784, 0, 327681, -589783, 0, 327681, -589782, 0, 131080, -458753, 0, 196608, -524288, 0, 327681, -524287, 0, 327681, -524286, 0, 327681, -524285, 0, 327681, -524284, 0, 327681, -524283, 0, 327681, -524282, 0, 327681, -524281, 0, 327681, -524280, 0, 327681, -524279, 0, 327681, -524278, 0, 327681, -524277, 0, 327681, -524276, 0, 327681, -524275, 0, 327681, -524274, 0, 327681, -524273, 0, 327681, -524272, 0, 327681, -524271, 0, 327681, -524270, 0, 327681, -524269, 0, 327681, -524268, 0, 327681, -524267, 0, 327681, -524266, 0, 327681, -524265, 0, 327681, -524264, 0, 327681, -524263, 0, 327681, -524262, 0, 327681, -524261, 0, 327681, -524260, 0, 327681, -524259, 0, 327681, -524258, 0, 327681, -524257, 0, 327681, -524256, 0, 327681, -524255, 0, 327681, -524254, 0, 327681, -524253, 0, 327681, -524252, 0, 327681, -524251, 0, 327681, -524250, 0, 327681, -524249, 0, 327681, -524248, 0, 327681, -524247, 0, 327681, -524246, 0, 131080, -393217, 0, 196608, -458752, 0, 327681, -458751, 0, 327681, -458750, 0, 327681, -458749, 0, 327681, -458748, 0, 196615, -458747, 0, 196609, -458746, 0, 196609, -458745, 0, 196609, -458744, 0, 196609, -458743, 0, 196609, -458742, 0, 196609, -458741, 0, 196609, -458740, 0, 196609, -458739, 0, 196609, -458738, 0, 196609, -458737, 0, 196609, -458736, 0, 196609, -458735, 0, 196609, -458734, 0, 196609, -458733, 0, 196609, -458732, 0, 196609, -458731, 0, 196609, -458730, 0, 196609, -458729, 0, 196609, -458728, 0, 196609, -458727, 0, 196614, -458726, 0, 327681, -458725, 0, 327681, -458724, 0, 327681, -458723, 0, 196615, -458722, 0, 196609, -458721, 0, 196609, -458720, 0, 196609, -458719, 0, 196609, -458718, 0, 196609, -458717, 0, 196609, -458716, 0, 196609, -458715, 0, 196609, -458714, 0, 196609, -458713, 0, 196609, -458712, 0, 196614, -458711, 0, 327681, -458710, 0, 131080, -327681, 0, 196608, -393216, 0, 327681, -393215, 0, 327681, -393214, 0, 196615, -393213, 0, 196609, -393212, 0, 196611, -393191, 0, 196608, -393190, 0, 327681, -393189, 0, 327681, -393188, 0, 196615, -393187, 0, 196611, -393176, 0, 196608, -393175, 0, 327681, -393174, 0, 131080, -262145, 0, 196608, -327680, 0, 327681, -327679, 0, 196615, -327678, 0, 196611, -327655, 0, 196608, -327654, 0, 327681, -327653, 0, 196615, -327652, 0, 196611, -327640, 0, 196608, -327639, 0, 327681, -327638, 0, 131080, -196609, 0, 196608, -262144, 0, 327681, -262143, 0, 131080, -262125, 0, 6, -262122, 0, 196612, -262121, 0, 196610, -262119, 0, 196613, -262118, 0, 196609, -262117, 0, 196611, -262104, 0, 196608, -262103, 0, 327681, -262102, 0, 131080, -131073, 0, 196608, -196608, 0, 327681, -196607, 0, 131080, -196595, 0, 9, -196594, 0, 65537, -196593, 0, 65537, -196592, 0, 7, -196590, 0, 9, -196589, 0, 65545, -196588, 0, 65537, -196587, 0, 65537, -196586, 0, 131078, -196585, 0, 196611, -196577, 0, 196612, -196576, 0, 131081, -196575, 0, 131081, -196574, 0, 131081, -196573, 0, 131081, -196572, 0, 131081, -196571, 0, 131081, -196570, 0, 131081, -196569, 0, 131081, -196568, 0, 196617, -196567, 0, 327681, -196566, 0, 131080, -65537, 0, 196608, -131072, 0, 327681, -131071, 0, 196616, -131070, 0, 131081, -131069, 0, 131081, -131068, 0, 131081, -131067, 0, 131081, -131066, 0, 131081, -131065, 0, 131074, -131064, 0, 65537, -131063, 0, 65537, -131062, 0, 7, -131042, 0, 196612, -131041, 0, 196617, -131040, 0, 327681, -131039, 0, 327681, -131038, 0, 327681, -131037, 0, 327681, -131036, 0, 327681, -131035, 0, 327681, -131034, 0, 327681, -131033, 0, 327681, -131032, 0, 327681, -131031, 0, 327681, -131030, 0, 131080, -1, 0, 196608, -65536, 0, 327681, -65535, 0, 327681, -65534, 0, 327681, -65533, 0, 327681, -65532, 0, 327681, -65531, 0, 196615, -65530, 0, 196609, -65529, 0, 196611, -65507, 0, 196612, -65506, 0, 196617, -65505, 0, 327681, -65504, 0, 327681, -65503, 0, 327681, -65502, 0, 327681, -65501, 0, 327681, -65500, 0, 327681, -65499, 0, 327681, -65498, 0, 327681, -65497, 0, 327681, -65496, 0, 327681, -65495, 0, 327681, -65494, 0, 131080, 65535, 0, 196608, 0, 0, 327681, 1, 0, 327681, 2, 0, 327681, 3, 0, 196615, 4, 0, 196609, 5, 0, 196611, 26, 0, 196612, 27, 0, 131081, 28, 0, 131081, 29, 0, 196617, 30, 0, 327681, 31, 0, 327681, 32, 0, 327681, 33, 0, 327681, 34, 0, 327681, 35, 0, 327681, 36, 0, 327681, 37, 0, 327681, 38, 0, 327681, 39, 0, 327681, 40, 0, 327681, 41, 0, 327681, 42, 0, 131080, 131071, 0, 196608, 65536, 0, 327681, 65537, 0, 327681, 65538, 0, 196615, 65539, 0, 196611, 65547, 0, 196612, 65548, 0, 131074, 65549, 0, 65537, 65550, 0, 65537, 65551, 0, 65537, 65552, 0, 65537, 65553, 0, 7, 65562, 0, 196608, 65563, 0, 327681, 65564, 0, 327681, 65565, 0, 327681, 65566, 0, 327681, 65567, 0, 327681, 65568, 0, 327681, 65569, 0, 327681, 65570, 0, 327681, 65571, 0, 327681, 65572, 0, 327681, 65573, 0, 327681, 65574, 0, 327681, 65575, 0, 327681, 65576, 0, 327681, 65577, 0, 327681, 65578, 0, 131080, 196607, 0, 196608, 131072, 0, 327681, 131073, 0, 196615, 131074, 0, 196611, 131083, 0, 196608, 131084, 0, 131080, 131098, 0, 196608, 131099, 0, 327681, 131100, 0, 327681, 131101, 0, 327681, 131102, 0, 327681, 131103, 0, 327681, 131104, 0, 327681, 131105, 0, 327681, 131106, 0, 327681, 131107, 0, 327681, 131108, 0, 327681, 131109, 0, 327681, 131110, 0, 327681, 131111, 0, 327681, 131112, 0, 327681, 131113, 0, 327681, 131114, 0, 131080, 262143, 0, 196608, 196608, 0, 327681, 196609, 0, 131080, 196619, 0, 196608, 196620, 0, 131080, 196634, 0, 196608, 196635, 0, 327681, 196636, 0, 327681, 196637, 0, 327681, 196638, 0, 327681, 196639, 0, 327681, 196640, 0, 327681, 196641, 0, 327681, 196642, 0, 327681, 196643, 0, 327681, 196644, 0, 327681, 196645, 0, 327681, 196646, 0, 327681, 196647, 0, 327681, 196648, 0, 327681, 196649, 0, 327681, 196650, 0, 131080, 327679, 0, 196608, 262144, 0, 327681, 262145, 0, 131080, 262153, 0, 196612, 262154, 0, 131081, 262155, 0, 196617, 262156, 0, 131080, 262161, 0, 6, 262170, 0, 196608, 262171, 0, 327681, 262172, 0, 327681, 262173, 0, 327681, 262174, 0, 327681, 262175, 0, 327681, 262176, 0, 327681, 262177, 0, 327681, 262178, 0, 327681, 262179, 0, 327681, 262180, 0, 327681, 262181, 0, 327681, 262182, 0, 327681, 262183, 0, 327681, 262184, 0, 327681, 262185, 0, 327681, 262186, 0, 131080, 393215, 0, 196608, 327680, 0, 327681, 327681, 0, 196616, 327682, 0, 131081, 327683, 0, 131081, 327684, 0, 131081, 327685, 0, 131081, 327686, 0, 131081, 327687, 0, 131081, 327688, 0, 131081, 327689, 0, 196617, 327690, 0, 327681, 327691, 0, 327681, 327692, 0, 196616, 327693, 0, 131081, 327694, 0, 131081, 327695, 0, 131081, 327696, 0, 131081, 327697, 0, 262148, 327698, 0, 131081, 327699, 0, 131081, 327700, 0, 131081, 327701, 0, 131081, 327702, 0, 131081, 327703, 0, 131081, 327704, 0, 131081, 327705, 0, 131081, 327706, 0, 196617, 327707, 0, 327681, 327708, 0, 327681, 327709, 0, 327681, 327710, 0, 327681, 327711, 0, 327681, 327712, 0, 327681, 327713, 0, 327681, 327714, 0, 327681, 327715, 0, 327681, 327716, 0, 327681, 327717, 0, 327681, 327718, 0, 327681, 327719, 0, 327681, 327720, 0, 327681, 327721, 0, 327681, 327722, 0, 131080, 458751, 0, 196613, 393216, 0, 196609, 393217, 0, 196609, 393218, 0, 196609, 393219, 0, 196609, 393220, 0, 196609, 393221, 0, 196609, 393222, 0, 196609, 393223, 0, 196609, 393224, 0, 196609, 393225, 0, 196609, 393226, 0, 196609, 393227, 0, 196609, 393228, 0, 196609, 393229, 0, 196609, 393230, 0, 196609, 393231, 0, 196609, 393232, 0, 196609, 393233, 0, 196609, 393234, 0, 196609, 393235, 0, 196609, 393236, 0, 196609, 393237, 0, 196609, 393238, 0, 196609, 393239, 0, 196609, 393240, 0, 196609, 393241, 0, 196609, 393242, 0, 196609, 393243, 0, 196609, 393244, 0, 196609, 393245, 0, 196609, 393246, 0, 196609, 393247, 0, 196609, 393248, 0, 196609, 393249, 0, 196609, 393250, 0, 196609, 393251, 0, 196609, 393252, 0, 196609, 393253, 0, 196609, 393254, 0, 196609, 393255, 0, 196609, 393256, 0, 196609, 393257, 0, 196609, 393258, 0, 196611 )

[node name="Props2" parent="." index="2" instance=ExtResource( 2 )]
position = Vector2( 8, 8 )
tile_data = PoolIntArray( -262142, 38, 0, -262141, 39, 0, -262140, 38, 0, -262139, 37, 0, -262138, 39, 0, -262137, 37, 0, -196605, 11, 0, -196574, 11, 0, -131047, 536870912, 0, -131046, 1, 0, -131045, 2, 0, -131035, 8, 0, -65535, 9, 0, 32, 10, 0, 34, 10, 0, 65564, 9, 0, 131104, 11, 0, 196609, 39, 0, 196610, 38, 0, 196612, 37, 0, 196613, 39, 0, 196615, 38, 0, 196620, 37, 0, 196621, 38, 0, 196622, 3, 0, 196623, 39, 0, 196625, 6, 0, 196626, 37, 0, 196627, 38, 0, 196628, 5, 0, 196629, 37, 0, 196630, 39, 0, 196631, 37, 0, 196632, 38, 0, 262153, 8, 0 )

[node name="Props" parent="." index="3"]
tile_data = PoolIntArray( -393211, 13, 0, -393209, 12, 0, -393208, 14, 0, -393207, 12, 0, -393206, 13, 0, -393205, 12, 0, -393204, 14, 0, -393203, 13, 0, -393202, 14, 0, -393201, 12, 0, -393200, 14, 0, -393199, 13, 0, -393198, 14, 0, -393197, 12, 0, -393196, 13, 0, -393195, 12, 0, -393194, 14, 0, -393193, 12, 0, -393192, 14, 0, -393186, 13, 0, -393185, 14, 0, -393184, 13, 0, -393183, 12, 0, -393179, 12, 0, -393178, 13, 0, -393177, 14, 0, -327677, 14, 0, -327676, 12, 0, -327661, 1, 0, -327657, 2, 0, -327651, 14, 0, -327644, 18, 0, -262130, 1, 0, -262129, 3, 0, -262128, 536870912, 0, -262126, 37, 0, -262116, 12, 0, -262113, 6, 0, -262112, 3, 0, -262111, 0, 0, -262106, 19, 0, -196606, 35, 0, -196605, 36, 0, -196604, 35, 0, -196603, 35, 0, -196602, 36, 0, -196599, 3, 0, -196582, 27, 0, -196578, 4, 0, -131070, 31, 0, -131069, 31, 0, -131068, 31, 0, -131067, 31, 0, -131066, 31, 0, -131046, 28, 0, -131043, 3, 0, -65528, 13, 0, -65527, 14, 0, -65510, 29, 0, 6, 27, 0, 11, 0, 0, 12, 6, 0, 13, 2, 0, 14, 3, 0, 15, 1, 0, 16, 0, 0, 65540, 14, 0, 65541, 12, 0, 65542, 28, 0, 131075, 14, 0, 131078, 28, 0, 196610, 12, 0, 196614, 28, 0, 196617, 3, 0, 196618, 5, 0, 196625, 1, 0, 262146, 35, 0, 262147, 35, 0, 262148, 36, 0, 262149, 35, 0, 262150, 35, 0, 262151, 36, 0, 262152, 35, 0, 262157, 36, 0, 262158, 35, 0, 262159, 36, 0, 262160, 35, 0, 262162, 35, 0, 262163, 35, 0, 262164, 36, 0, 262165, 35, 0, 262166, 35, 0, 262167, 36, 0, 262168, 35, 0, 262169, 35, 0, 327682, 31, 0, 327683, 31, 0, 327684, 31, 0, 327685, 31, 0, 327686, 31, 0, 327687, 31, 0, 327688, 31, 0, 327693, 31, 0, 327694, 31, 0, 327695, 31, 0, 327696, 31, 0, 327698, 31, 0, 327699, 31, 0, 327700, 31, 0, 327701, 31, 0, 327702, 31, 0, 327703, 31, 0, 327704, 31, 0, 327705, 31, 0 )

[node name="AnimatedProps" parent="." index="4"]
position = Vector2( -16, -16 )

[node name="Torch" parent="AnimatedProps" index="0" instance=ExtResource( 3 )]
position = Vector2( 368, 64 )

[node name="Torch2" parent="AnimatedProps" index="1" instance=ExtResource( 3 )]
position = Vector2( 248, 64 )

[node name="Spider" parent="AnimatedProps" index="2" instance=ExtResource( 4 )]
position = Vector2( 200, -88 )
height = 6

[node name="Spider2" parent="AnimatedProps" index="3" instance=ExtResource( 4 )]
position = Vector2( 145.5, -8 )
height = 4

[node name="HangingBat" parent="AnimatedProps" index="4" instance=ExtResource( 5 )]
position = Vector2( 112, 16 )

[node name="HangingBat2" parent="AnimatedProps" index="5" instance=ExtResource( 5 )]
position = Vector2( 120, 16 )

[node name="HangingBat3" parent="AnimatedProps" index="6" instance=ExtResource( 5 )]
position = Vector2( 80, 32 )

[node name="HangingBat4" parent="AnimatedProps" index="7" instance=ExtResource( 5 )]
position = Vector2( 232, -16 )

[node name="HangingBat5" parent="AnimatedProps" index="8" instance=ExtResource( 5 )]
position = Vector2( 240, -16 )

[node name="HangingBat6" parent="AnimatedProps" index="9" instance=ExtResource( 5 )]
position = Vector2( 256, -16 )

[node name="HangingBat7" parent="AnimatedProps" index="10" instance=ExtResource( 5 )]
position = Vector2( 320, -16 )

[node name="HangingBat8" parent="AnimatedProps" index="11" instance=ExtResource( 5 )]
position = Vector2( 328, -16 )

[node name="HangingBat9" parent="AnimatedProps" index="12" instance=ExtResource( 5 )]
position = Vector2( 352, -16 )

[node name="HangingBat10" parent="AnimatedProps" index="13" instance=ExtResource( 5 )]
position = Vector2( 360, -16 )

[node name="HangingBat11" parent="AnimatedProps" index="14" instance=ExtResource( 5 )]
position = Vector2( 376, -16 )

[node name="Boots" parent="map" index="0" instance=ExtResource( 6 )]
position = Vector2( 352, -80 )

[node name="Key" parent="map" index="1" instance=ExtResource( 7 )]
position = Vector2( 224, 56 )

[node name="Player" parent="map" index="2"]
position = Vector2( 57.3776, 62.274 )

[node name="PlayerCamera" parent="map" index="3"]
position = Vector2( -8, -8 )
limit_left = 8
limit_top = -104
limit_right = 632
limit_bottom = 88

[node name="Gate" parent="map" index="4" instance=ExtResource( 8 )]
position = Vector2( 552, -80 )

[node name="Exit" parent="map" index="5"]
position = Vector2( 592, -64 )
next_stage = ExtResource( 9 )

[node name="box" parent="map" index="6" instance=ExtResource( 10 )]
position = Vector2( 112, 48 )

[node name="box4" parent="map" index="7" instance=ExtResource( 10 )]
position = Vector2( 272, -32 )

[node name="Block" parent="map" index="8" instance=ExtResource( 11 )]
position = Vector2( 112, 64 )

[node name="Block4" parent="map" index="9" instance=ExtResource( 11 )]
position = Vector2( 272, -16 )

[node name="Block2" parent="map" index="10" instance=ExtResource( 11 )]
position = Vector2( 96, 64 )

[node name="Block3" parent="map" index="11" instance=ExtResource( 11 )]
position = Vector2( 272, 0 )

[node name="Spikes" parent="map" index="12" instance=ExtResource( 12 )]
position = Vector2( 320, -64 )

[node name="Spikes2" parent="map" index="13" instance=ExtResource( 12 )]
position = Vector2( 336, -64 )

[node name="box2" parent="map" index="14" instance=ExtResource( 10 )]
position = Vector2( 400, 64 )

[node name="box3" parent="map" index="15" instance=ExtResource( 10 )]
position = Vector2( 32, -64 )

[node name="Block5" parent="map" index="16" instance=ExtResource( 11 )]
position = Vector2( 32, -48 )

[node name="Block6" parent="map" index="17" instance=ExtResource( 11 )]
position = Vector2( 128, -48 )

[node name="Crawler" parent="map" index="18" instance=ExtResource( 13 )]
position = Vector2( 64, -48 )

[node name="GoblinWitch" parent="map" index="19" instance=ExtResource( 14 )]
position = Vector2( 384, 64 )

[node name="cursor" parent="." index="6"]
position = Vector2( 57.2397, 62.274 )

[node name="Preview" parent="." index="7"]
position = Vector2( 58, 62.116 )
