[gd_scene format=2]

[node name="DeathParticles2" type="CPUParticles2D"]
position = Vector2( 0, -8 )
emitting = false
amount = 32
one_shot = true
explosiveness = 1.0
local_coords = false
emission_shape = 2
emission_rect_extents = Vector2( 4, 8 )
spread = 180.0
gravity = Vector2( 0, 200 )
initial_velocity = 100.0
initial_velocity_random = 1.0
scale_amount = 2.0
color = Color( 0.862745, 0.960784, 1, 1 )
