[gd_scene load_steps=4 format=2]

[ext_resource path="res://spaces/stages/base_stage.tscn" type="PackedScene" id=1]
[ext_resource path="res://cutscenes/ending/ending.tscn" type="PackedScene" id=2]
[ext_resource path="res://spaces/Label.tscn" type="PackedScene" id=3]

[node name="space" instance=ExtResource( 1 )]

[node name="Background" parent="." index="0"]
tile_data = PoolIntArray( -393216, 1, 0, -393215, 0, 0, -393214, 0, 0, -393213, 0, 0, -393212, 0, 0, -393211, 1, 0, -393210, 1, 0, -393209, 2, 0, -393208, 2, 0, -393207, 2, 0, -393206, 0, 0, -393205, 2, 0, -393204, 2, 0, -393203, 1, 0, -393202, 536870935, 0, -393201, 536870924, 0, -393200, 536870924, 0, -393199, 536870924, 0, -393198, 536870933, 0, -393197, 8, 0, -393196, 8, 0, -393195, 8, 0, -393194, 8, 0, -393193, 8, 0, -393192, 8, 0, -393191, 8, 0, -393190, 8, 0, -393189, 8, 0, -393188, 8, 0, -393187, 8, 0, -393186, 8, 0, -393185, 8, 0, -393184, 8, 0, -393183, 10, 0, -393182, 11, 0, -393181, 8, 0, -393180, 8, 0, -393179, 3, 0, -393178, 1, 0, -393177, 1, 0, -393176, 1, 0, -393175, 1, 0, -393174, 0, 0, -393173, 1, 0, -393172, 1, 0, -393171, 1, 0, -393170, 1, 0, -393169, 1, 0, -393168, 1, 0, -393167, 1, 0, -393166, 1, 0, -393165, 1, 0, -393164, 1, 0, -393163, 1, 0, -393162, 1, 0, -393161, 1, 0, -393160, 1, 0, -393159, 1, 0, -393158, 1, 0, -393157, 1, 0, -327680, 1, 0, -327679, 17, 0, -327678, 1, 0, -327677, 1, 0, -327676, 0, 0, -327675, 1, 0, -327674, 1, 0, -327673, 1, 0, -327672, 2, 0, -327671, 2, 0, -327670, 0, 0, -327669, 1, 0, -327668, 1, 0, -327667, 1, 0, -327666, 536870936, 0, -327665, 536870924, 0, -327664, 536870924, 0, -327663, 536870924, 0, -327662, 536870934, 0, -327661, 8, 0, -327660, 8, 0, -327659, 8, 0, -327658, 10, 0, -327657, 11, 0, -327656, 8, 0, -327655, 8, 0, -327654, 8, 0, -327653, 8, 0, -327652, 10, 0, -327651, 11, 0, -327650, 8, 0, -327649, 9, 0, -327648, 8, 0, -327647, 8, 0, -327646, 8, 0, -327645, 8, 0, -327644, 8, 0, -327643, 4, 0, -327642, 1, 0, -327641, 1, 0, -327640, 1, 0, -327639, 1, 0, -327638, 1, 0, -327637, 0, 0, -327636, 0, 0, -327635, 1, 0, -327634, 1, 0, -327633, 1, 0, -327632, 1, 0, -327631, 1, 0, -327630, 1, 0, -327629, 1, 0, -327628, 1, 0, -327627, 1, 0, -327626, 1, 0, -327625, 1, 0, -327624, 1, 0, -327623, 1, 0, -327622, 1, 0, -327621, 1, 0, -262144, 0, 0, -262143, 2, 0, -262142, 1, 0, -262141, 1, 0, -262140, 0, 0, -262139, 0, 0, -262138, 0, 0, -262137, 0, 0, -262136, 2, 0, -262135, 2, 0, -262134, 1, 0, -262133, 1, 0, -262132, 17, 0, -262131, 1, 0, -262130, 536870938, 0, -262129, 536870924, 0, -262128, 536870924, 0, -262127, 536870930, 0, -262126, 8, 0, -262125, 10, 0, -262124, 11, 0, -262123, 8, 0, -262122, 8, 0, -262121, 8, 0, -262120, 8, 0, -262119, 8, 0, -262118, 9, 0, -262117, 8, 0, -262116, 8, 0, -262115, 8, 0, -262114, 8, 0, -262113, 8, 0, -262112, 10, 0, -262111, 11, 0, -262110, 8, 0, -262109, 9, 0, -262108, 8, 0, -262107, 5, 0, -262106, 1, 0, -262105, 1, 0, -262104, 1, 0, -262103, 1, 0, -262102, 1, 0, -262101, 1, 0, -262100, 1, 0, -262099, 0, 0, -262098, 1, 0, -262097, 1, 0, -262096, 1, 0, -262095, 1, 0, -262094, 1, 0, -262093, 1, 0, -262092, 1, 0, -262091, 1, 0, -262090, 1, 0, -262089, 1, 0, -262088, 1, 0, -262087, 1, 0, -262086, 1, 0, -262085, 1, 0, -196608, 1, 0, -196607, 0, 0, -196606, 1, 0, -196605, 17, 0, -196604, 2, 0, -196603, 0, 0, -196602, 0, 0, -196601, 1, 0, -196600, 2, 0, -196599, 1, 0, -196598, 1, 0, -196597, 1, 0, -196596, 1, 0, -196595, 1, 0, -196594, 536870938, 0, -196593, 536870924, 0, -196592, 536870924, 0, -196591, 536870932, 0, -196590, 8, 0, -196589, 8, 0, -196588, 8, 0, -196587, 8, 0, -196586, 8, 0, -196585, 8, 0, -196584, 8, 0, -196583, 8, 0, -196582, 8, 0, -196581, 8, 0, -196580, 8, 0, -196579, 10, 0, -196578, 11, 0, -196577, 8, 0, -196576, 8, 0, -196575, 8, 0, -196574, 8, 0, -196573, 8, 0, -196572, 8, 0, -196571, 6, 0, -196570, 1, 0, -196569, 1, 0, -196568, 1, 0, -196567, 1, 0, -196566, 1, 0, -196565, 1, 0, -196564, 1, 0, -196563, 0, 0, -196562, 0, 0, -196561, 1, 0, -196560, 1, 0, -196559, 1, 0, -196558, 1, 0, -196557, 1, 0, -196556, 1, 0, -196555, 1, 0, -196554, 1, 0, -196553, 1, 0, -196552, 1, 0, -196551, 1, 0, -196550, 1, 0, -196549, 1, 0, -131072, 0, 0, -131071, 0, 0, -131070, 2, 0, -131069, 1, 0, -131068, 1, 0, -131067, 0, 0, -131066, 0, 0, -131065, 1, 0, -131064, 1, 0, -131063, 1, 0, -131062, 2, 0, -131061, 1, 0, -131060, 1, 0, -131059, 0, 0, -131058, 536870938, 0, -131057, 536870924, 0, -131056, 536870924, 0, -131055, 536870934, 0, -131054, 8, 0, -131053, 8, 0, -131052, 8, 0, -131051, 8, 0, -131050, 8, 0, -131049, 9, 0, -131048, 8, 0, -131047, 8, 0, -131046, 8, 0, -131045, 8, 0, -131044, 8, 0, -131043, 8, 0, -131042, 8, 0, -131041, 8, 0, -131040, 10, 0, -131039, 11, 0, -131038, 8, 0, -131037, 8, 0, -131036, 8, 0, -131035, 7, 0, -131034, 1, 0, -131033, 1, 0, -131032, 1, 0, -131031, 1, 0, -131030, 14, 0, -131029, 1, 0, -131028, 1, 0, -131027, 1, 0, -131026, 0, 0, -131025, 1, 0, -131024, 1, 0, -131023, 1, 0, -131022, 1, 0, -131021, 1, 0, -131020, 1, 0, -131019, 1, 0, -131018, 1, 0, -131017, 1, 0, -131016, 1, 0, -131015, 1, 0, -131014, 1, 0, -131013, 1, 0, -65536, 0, 0, -65535, 1, 0, -65534, 1, 0, -65533, 1, 0, -65532, 1, 0, -65531, 14, 0, -65530, 0, 0, -65529, 0, 0, -65528, 1, 0, -65527, 1, 0, -65526, 1, 0, -65525, 1, 0, -65524, 0, 0, -65523, 536870912, 0, -65522, 536870938, 0, -65521, 536870924, 0, -65520, 536870930, 0, -65519, 8, 0, -65518, 10, 0, -65517, 11, 0, -65516, 8, 0, -65515, 8, 0, -65514, 8, 0, -65513, 8, 0, -65512, 8, 0, -65511, 8, 0, -65510, 8, 0, -65509, 9, 0, -65508, 8, 0, -65507, 8, 0, -65506, 8, 0, -65505, 8, 0, -65504, 8, 0, -65503, 8, 0, -65502, 8, 0, -65501, 9, 0, -65500, 8, 0, -65499, 8, 0, -65498, 3, 0, -65497, 1, 0, -65496, 1, 0, -65495, 0, 0, -65494, 15, 0, -65493, 1, 0, -65492, 1, 0, -65491, 1, 0, -65490, 1, 0, -65489, 1, 0, -65488, 1, 0, -65487, 1, 0, -65486, 1, 0, -65485, 1, 0, -65484, 1, 0, -65483, 1, 0, -65482, 1, 0, -65481, 1, 0, -65480, 1, 0, -65479, 1, 0, -65478, 1, 0, -65477, 1, 0, 0, 0, 0, 1, 1, 0, 2, 1, 0, 3, 1, 0, 4, 1, 0, 5, 13, 0, 6, 0, 0, 7, 0, 0, 8, 14, 0, 9, 1, 0, 10, 1, 0, 11, 1, 0, 12, 1, 0, 13, 2, 0, 14, 536870941, 0, 15, 536870924, 0, 16, 536870932, 0, 17, 8, 0, 18, 8, 0, 19, 8, 0, 20, 8, 0, 21, 8, 0, 22, 8, 0, 23, 8, 0, 24, 8, 0, 25, 8, 0, 26, 8, 0, 27, 8, 0, 28, 8, 0, 29, 8, 0, 30, 8, 0, 31, 8, 0, 32, 8, 0, 33, 8, 0, 34, 8, 0, 35, 8, 0, 36, 8, 0, 37, 8, 0, 38, 6, 0, 39, 1, 0, 40, 1, 0, 41, 0, 0, 42, 13, 0, 43, 1, 0, 44, 1, 0, 45, 1, 0, 46, 1, 0, 47, 1, 0, 48, 1, 0, 49, 1, 0, 50, 1, 0, 51, 1, 0, 52, 1, 0, 53, 1, 0, 54, 1, 0, 55, 1, 0, 56, 1, 0, 57, 1, 0, 58, 1, 0, 59, 1, 0, 65536, 1, 0, 65537, 0, 0, 65538, 0, 0, 65539, 0, 0, 65540, 1, 0, 65541, 15, 0, 65542, 0, 0, 65543, 1, 0, 65544, 15, 0, 65545, 1, 0, 65546, 1, 0, 65547, 1, 0, 65548, 1, 0, 65549, 536870937, 0, 65550, 536870924, 0, 65551, 536870924, 0, 65552, 536870934, 0, 65553, 8, 0, 65554, 8, 0, 65555, 8, 0, 65556, 8, 0, 65557, 8, 0, 65558, 8, 0, 65559, 8, 0, 65560, 8, 0, 65561, 8, 0, 65562, 8, 0, 65563, 8, 0, 65564, 8, 0, 65565, 8, 0, 65566, 8, 0, 65567, 8, 0, 65568, 8, 0, 65569, 8, 0, 65570, 8, 0, 65571, 8, 0, 65572, 8, 0, 65573, 8, 0, 65574, 7, 0, 65575, 1, 0, 65576, 1, 0, 65577, 1, 0, 65578, 15, 0, 65579, 0, 0, 65580, 1, 0, 65581, 1, 0, 65582, 1, 0, 65583, 1, 0, 65584, 1, 0, 65585, 1, 0, 65586, 1, 0, 65587, 1, 0, 65588, 1, 0, 65589, 1, 0, 65590, 1, 0, 65591, 1, 0, 65592, 1, 0, 65593, 1, 0, 65594, 1, 0, 65595, 1, 0, 131072, 0, 0, 131073, 0, 0, 131074, 0, 0, 131075, 0, 0, 131076, 0, 0, 131077, 13, 0, 131078, 1, 0, 131079, 1, 0, 131080, 16, 0, 131081, 0, 0, 131082, 0, 0, 131083, 0, 0, 131084, 2, 0, 131085, 536870941, 0, 131086, 536870924, 0, 131087, 536870930, 0, 131088, 8, 0, 131089, 8, 0, 131090, 8, 0, 131091, 8, 0, 131092, 8, 0, 131093, 8, 0, 131094, 8, 0, 131095, 8, 0, 131096, 8, 0, 131097, 8, 0, 131098, 8, 0, 131099, 8, 0, 131100, 8, 0, 131101, 8, 0, 131102, 8, 0, 131103, 8, 0, 131104, 8, 0, 131105, 8, 0, 131106, 8, 0, 131107, 8, 0, 131108, 8, 0, 131109, 8, 0, 131110, 8, 0, 131111, 3, 0, 131112, 1, 0, 131113, 1, 0, 131114, 16, 0, 131115, 0, 0, 131116, 0, 0, 131117, 1, 0, 131118, 1, 0, 131119, 1, 0, 131120, 1, 0, 131121, 1, 0, 131122, 1, 0, 131123, 1, 0, 131124, 1, 0, 131125, 1, 0, 131126, 1, 0, 131127, 1, 0, 131128, 1, 0, 131129, 1, 0, 131130, 1, 0, 131131, 1, 0, 196618, 0, 0 )

[node name="Ground" parent="." index="1"]
tile_data = PoolIntArray( -327683, 0, 196612, -327682, 0, 131081, -327681, 0, 131081, -393216, 0, 196610, -393156, 0, 196612, -393155, 0, 131081, -393154, 0, 196610, -262147, 0, 196608, -262146, 0, 327681, -262145, 0, 327681, -327680, 0, 131080, -327620, 0, 196608, -327619, 0, 327681, -327618, 0, 131080, -196611, 0, 196608, -196610, 0, 327681, -196609, 0, 327681, -262144, 0, 131080, -262084, 0, 196608, -262083, 0, 327681, -262082, 0, 131080, -131075, 0, 196608, -131074, 0, 327681, -131073, 0, 327681, -196608, 0, 131080, -196548, 0, 196608, -196547, 0, 327681, -196546, 0, 131080, -65539, 0, 196608, -65538, 0, 327681, -65537, 0, 327681, -131072, 0, 131080, -131012, 0, 196608, -131011, 0, 327681, -131010, 0, 131080, -3, 0, 196608, -2, 0, 327681, -1, 0, 327681, -65536, 0, 131080, -65476, 0, 196608, -65475, 0, 327681, -65474, 0, 131080, 65533, 0, 196608, 65534, 0, 327681, 65535, 0, 327681, 0, 0, 131080, 60, 0, 196608, 61, 0, 327681, 62, 0, 131080, 131069, 0, 196608, 131070, 0, 327681, 131071, 0, 327681, 65536, 0, 131080, 65596, 0, 196608, 65597, 0, 327681, 65598, 0, 131080, 196605, 0, 196608, 196606, 0, 327681, 196607, 0, 327681, 131072, 0, 131080, 131132, 0, 196608, 131133, 0, 327681, 131134, 0, 131080, 262141, 0, 196608, 262142, 0, 327681, 262143, 0, 327681, 196608, 0, 196616, 196609, 0, 131081, 196610, 0, 131081, 196611, 0, 131081, 196612, 0, 131081, 196613, 0, 131081, 196614, 0, 131081, 196615, 0, 131081, 196616, 0, 131081, 196617, 0, 131081, 196618, 0, 131081, 196619, 0, 131081, 196620, 0, 131081, 196621, 0, 131081, 196622, 0, 131081, 196623, 0, 131081, 196624, 0, 131081, 196625, 0, 131081, 196626, 0, 131081, 196627, 0, 131081, 196628, 0, 131081, 196629, 0, 131081, 196630, 0, 131081, 196631, 0, 131081, 196632, 0, 131081, 196633, 0, 131081, 196634, 0, 131081, 196635, 0, 131081, 196636, 0, 131081, 196637, 0, 131081, 196638, 0, 131081, 196639, 0, 131081, 196640, 0, 131081, 196641, 0, 131081, 196642, 0, 131081, 196643, 0, 131081, 196644, 0, 131081, 196645, 0, 131081, 196646, 0, 131081, 196647, 0, 131081, 196648, 0, 131081, 196649, 0, 131081, 196650, 0, 131081, 196651, 0, 131081, 196652, 0, 131081, 196653, 0, 131081, 196654, 0, 131081, 196655, 0, 131081, 196656, 0, 131081, 196657, 0, 131081, 196658, 0, 131081, 196659, 0, 131081, 196660, 0, 131081, 196661, 0, 131081, 196662, 0, 131081, 196663, 0, 131081, 196664, 0, 131081, 196665, 0, 131081, 196666, 0, 131081, 196667, 0, 131081, 196668, 0, 196617, 196669, 0, 327681, 196670, 0, 131080, 327677, 0, 196608, 327678, 0, 327681, 327679, 0, 327681, 262144, 0, 327681, 262145, 0, 327681, 262146, 0, 327681, 262147, 0, 327681, 262148, 0, 327681, 262149, 0, 327681, 262150, 0, 327681, 262151, 0, 327681, 262152, 0, 327681, 262153, 0, 327681, 262154, 0, 327681, 262155, 0, 327681, 262156, 0, 327681, 262157, 0, 327681, 262158, 0, 327681, 262159, 0, 327681, 262160, 0, 327681, 262161, 0, 327681, 262162, 0, 327681, 262163, 0, 327681, 262164, 0, 327681, 262165, 0, 327681, 262166, 0, 327681, 262167, 0, 327681, 262168, 0, 327681, 262169, 0, 327681, 262170, 0, 327681, 262171, 0, 327681, 262172, 0, 327681, 262173, 0, 327681, 262174, 0, 327681, 262175, 0, 327681, 262176, 0, 327681, 262177, 0, 327681, 262178, 0, 327681, 262179, 0, 327681, 262180, 0, 327681, 262181, 0, 327681, 262182, 0, 327681, 262183, 0, 327681, 262184, 0, 327681, 262185, 0, 327681, 262186, 0, 327681, 262187, 0, 327681, 262188, 0, 327681, 262189, 0, 327681, 262190, 0, 327681, 262191, 0, 327681, 262192, 0, 327681, 262193, 0, 327681, 262194, 0, 327681, 262195, 0, 327681, 262196, 0, 327681, 262197, 0, 327681, 262198, 0, 327681, 262199, 0, 327681, 262200, 0, 327681, 262201, 0, 327681, 262202, 0, 327681, 262203, 0, 327681, 262204, 0, 327681, 262205, 0, 327681, 262206, 0, 131080, 393213, 0, 196613, 393214, 0, 196609, 393215, 0, 196609, 327680, 0, 196609, 327681, 0, 196609, 327682, 0, 196609, 327683, 0, 196609, 327684, 0, 196609, 327685, 0, 196609, 327686, 0, 196609, 327687, 0, 196609, 327688, 0, 196609, 327689, 0, 196609, 327690, 0, 196609, 327691, 0, 196609, 327692, 0, 196609, 327693, 0, 196609, 327694, 0, 196609, 327695, 0, 196609, 327696, 0, 196609, 327697, 0, 196609, 327698, 0, 196609, 327699, 0, 196609, 327700, 0, 196609, 327701, 0, 196609, 327702, 0, 196609, 327703, 0, 196609, 327704, 0, 196609, 327705, 0, 196609, 327706, 0, 196609, 327707, 0, 196609, 327708, 0, 196609, 327709, 0, 196609, 327710, 0, 196609, 327711, 0, 196609, 327712, 0, 196609, 327713, 0, 196609, 327714, 0, 196609, 327715, 0, 196609, 327716, 0, 196609, 327717, 0, 196609, 327718, 0, 196609, 327719, 0, 196609, 327720, 0, 196609, 327721, 0, 196609, 327722, 0, 196609, 327723, 0, 196609, 327724, 0, 196609, 327725, 0, 196609, 327726, 0, 196609, 327727, 0, 196609, 327728, 0, 196609, 327729, 0, 196609, 327730, 0, 196609, 327731, 0, 196609, 327732, 0, 196609, 327733, 0, 196609, 327734, 0, 196609, 327735, 0, 196609, 327736, 0, 196609, 327737, 0, 196609, 327738, 0, 196609, 327739, 0, 196609, 327740, 0, 196609, 327741, 0, 196609, 327742, 0, 196611 )

[node name="Props" parent="." index="2"]
tile_data = PoolIntArray( -393214, 28, 0, -393172, 27, 0, -393168, 12, 0, -327678, 28, 0, -327636, 28, 0, -262142, 28, 0, -262100, 28, 0, -196606, 28, 0, -196564, 28, 0, -131070, 28, 0, -131028, 28, 0, -65534, 28, 0, -65492, 28, 0, 2, 28, 0, 44, 28, 0, 65537, 18, 0, 65538, 28, 0, 65546, 18, 0, 65580, 28, 0, 65584, 16, 0, 65586, 18, 0, 131074, 29, 0, 131076, 38, 0, 131077, 37, 0, 131084, 1, 0, 131088, 4, 0, 131089, 3, 0, 131090, 6, 0, 131091, 6, 0, 131092, 5, 0, 131093, 3, 0, 131094, 6, 0, 131095, 5, 0, 131096, 6, 0, 131097, 3, 0, 131098, 6, 0, 131099, 5, 0, 131100, 3, 0, 131101, 6, 0, 131102, 3, 0, 131103, 6, 0, 131104, 5, 0, 131105, 5, 0, 131106, 6, 0, 131107, 5, 0, 131108, 6, 0, 131109, 3, 0, 131110, 6, 0, 131111, 6, 0, 131115, 38, 0, 131116, 29, 0, 131118, 19, 0, 131119, 38, 0, 131124, 39, 0, 131125, 37, 0, 131126, 1, 0, 131127, 39, 0, 196615, 1610612746, 0, 196619, 11, 0, 196623, 31, 0, 196624, 31, 0, 196625, 31, 0, 196626, 31, 0, 196627, 31, 0, 196628, 31, 0, 196629, 31, 0, 196630, 31, 0, 196631, 31, 0, 196632, 31, 0, 196633, 31, 0, 196634, 31, 0, 196635, 31, 0, 196636, 31, 0, 196637, 31, 0, 196638, 31, 0, 196639, 31, 0, 196640, 31, 0, 196641, 31, 0, 196642, 31, 0, 196643, 31, 0, 196644, 31, 0, 196645, 31, 0, 196646, 31, 0, 196647, 31, 0, 196648, 31, 0, 196649, 31, 0, 196650, 9, 0, 196657, 11, 0, 262145, 8, 0, 262148, 1610612745, 0, 262159, 10, 0, 262167, 9, 0, 262179, 8, 0, 262183, 10, 0, 262189, 8, 0, 262197, 9, 0, 327682, 10, 0, 327686, 11, 0, 327689, 8, 0, 327693, 9, 0, 327701, 11, 0, 327708, 10, 0, 327713, 9, 0, 327721, 11, 0, 327727, 10, 0, 327730, 11, 0 )

[node name="Player" parent="map" index="0"]
position = Vector2( 41.3776, 33.958 )

[node name="PlayerCamera" parent="map" index="1"]
limit_left = 8
limit_top = -104
limit_bottom = 88

[node name="Exit" parent="map" index="2"]
position = Vector2( 928, 29.8 )
next_stage = ExtResource( 2 )

[node name="Label" parent="map" index="3" instance=ExtResource( 3 )]
margin_left = 64.0
margin_top = -96.0
margin_right = 218.0
margin_bottom = -69.0
custom_colors/font_color = Color( 0.862745, 0.960784, 1, 1 )
text = "Programming:
	Wilson Kazuo Mizutani
	Eduardo Yukio
	Ayrton Sato
	Rafael Bordoni"

[node name="Label2" parent="map" index="4" instance=ExtResource( 3 )]
margin_left = 288.0
margin_top = -96.0
margin_right = 394.0
margin_bottom = -69.0
text = "Visual Art:
Gabriel Dandrea
Renato Eguti
Rafael Bordoni

Music and SFX:
Livia Maki Yoshikawa"

[node name="Label3" parent="map" index="5" instance=ExtResource( 3 )]
margin_left = 480.0
margin_top = -32.0
margin_right = 589.0
margin_bottom = 10.0
text = "Level Design:
Rafael Bordoni
Henrique Serra"

[node name="cursor" parent="." index="5"]
position = Vector2( 41.2397, 33.8 )

[node name="Preview" parent="." index="6"]
position = Vector2( 42, 33.8 )
