[gd_scene load_steps=4 format=2]

[ext_resource path="res://assets/sprites/Tile_tanus_void_3.png" type="Texture" id=1]
[ext_resource path="res://ui/font64.tres" type="DynamicFont" id=2]

[sub_resource type="Animation" id=1]
resource_name = "intro"
length = 33.0
step = 0.5
tracks/0/type = "value"
tracks/0/path = NodePath("Center/Sprite:frame")
tracks/0/interp = 1
tracks/0/loop_wrap = true
tracks/0/imported = false
tracks/0/enabled = true
tracks/0/keys = {
"times": PoolRealArray( 2, 3, 4, 6, 9, 9.5, 10, 10.5, 11, 11.5, 12, 12.5, 13, 14 ),
"transitions": PoolRealArray( 1, 1, 1, 1, 1, 1, 1, 1, 1, 1, 1, 1, 1, 1 ),
"update": 1,
"values": [ 12, 13, 14, 15, 16, 17, 18, 19, 20, 21, 22, 23, 24, 25 ]
}
tracks/1/type = "value"
tracks/1/path = NodePath("Label:text")
tracks/1/interp = 1
tracks/1/loop_wrap = true
tracks/1/imported = false
tracks/1/enabled = true
tracks/1/keys = {
"times": PoolRealArray( 0, 3, 4, 6, 14 ),
"transitions": PoolRealArray( 1, 1, 1, 1, 1 ),
"update": 1,
"values": [ "", "\"Hey you!\"", "Give me back my THING!!", "Using the power of NOTHING,
the THING was recovered!", "THE END" ]
}
tracks/2/type = "value"
tracks/2/path = NodePath("Center/Sprite:visible")
tracks/2/interp = 1
tracks/2/loop_wrap = true
tracks/2/imported = false
tracks/2/enabled = true
tracks/2/keys = {
"times": PoolRealArray( 0, 2 ),
"transitions": PoolRealArray( 1, 1 ),
"update": 1,
"values": [ false, true ]
}

[node name="Ending" type="Control"]
anchor_right = 1.0
anchor_bottom = 1.0

[node name="Center" type="Control" parent="."]
anchor_left = 0.5
anchor_top = 0.5
anchor_right = 0.5
anchor_bottom = 0.5

[node name="Sprite" type="Sprite" parent="Center"]
scale = Vector2( 4, 4 )
texture = ExtResource( 1 )
vframes = 8
hframes = 4
frame = 25

[node name="AnimationPlayer" type="AnimationPlayer" parent="."]
autoplay = "intro"
anims/intro = SubResource( 1 )

[node name="Label" type="Label" parent="."]
anchor_top = 0.6
anchor_right = 1.0
anchor_bottom = 1.0
custom_fonts/font = ExtResource( 2 )
text = "Using the power of NOTHING,
the THING was recovered!"
align = 1
valign = 1
[connection signal="animation_finished" from="AnimationPlayer" to="." method="_start_game"]
