[gd_scene load_steps=9 format=2]

[ext_resource path="res://actors/base_actor.tscn" type="PackedScene" id=1]
[ext_resource path="res://actors/equipments/key/key.gd" type="Script" id=2]
[ext_resource path="res://actors/components/transportable.tscn" type="PackedScene" id=3]
[ext_resource path="res://actors/components/gravity.tscn" type="PackedScene" id=4]
[ext_resource path="res://assets/sprites/Spritesheet3.png" type="Texture" id=5]
[ext_resource path="res://actors/components/solid/solid.tscn" type="PackedScene" id=6]
[ext_resource path="res://actors/components/pickable.tscn" type="PackedScene" id=7]

[sub_resource type="RectangleShape2D" id=1]
extents = Vector2( 7, 7 )

[node name="Key" instance=ExtResource( 1 )]
collision_layer = 8
collision_mask = 66
script = ExtResource( 2 )

[node name="transportable" parent="." index="0" instance=ExtResource( 3 )]

[node name="gravity" parent="." index="1" instance=ExtResource( 4 )]
gravity = 500.0
max_vertical_speed = 243.0

[node name="Sprite" type="Sprite" parent="." index="2"]
texture = ExtResource( 5 )
vframes = 8
hframes = 7
frame = 14

[node name="CollisionShape2D" type="CollisionShape2D" parent="." index="3"]
shape = SubResource( 1 )

[node name="Solid" parent="." index="4" instance=ExtResource( 6 )]

[node name="pickable" parent="." index="5" instance=ExtResource( 7 )]
