[gd_scene load_steps=5 format=2]

[ext_resource path="res://spaces/base_space.tscn" type="PackedScene" id=1]
[ext_resource path="res://actors/player/player.tscn" type="PackedScene" id=2]
[ext_resource path="res://spaces/stages/player_camera.gd" type="Script" id=3]
[ext_resource path="res://spaces/stages/exit/exit.tscn" type="PackedScene" id=4]

[node name="space" instance=ExtResource( 1 )]

[node name="Background" parent="." index="0"]
position = Vector2( -8, -8 )

[node name="Ground" parent="." index="1"]
position = Vector2( -8, -8 )

[node name="Props" parent="." index="2"]
position = Vector2( -8, -8 )

[node name="map" parent="." index="4"]
referential_path = NodePath("PlayerCamera")

[node name="Player" parent="map" index="0" instance=ExtResource( 2 )]

[node name="PlayerCamera" type="Camera2D" parent="map" index="1" groups=[
"player_camera",
]]
current = true
zoom = Vector2( 0.25, 0.25 )
script = ExtResource( 3 )
player_path = NodePath("../Player")

[node name="Tween" type="Tween" parent="map/PlayerCamera" index="0"]

[node name="Exit" parent="map" index="2" instance=ExtResource( 4 )]

[node name="cursor" parent="." index="5" groups=[
"stage_cursor",
]]
referential_path = NodePath("../map/PlayerCamera")

[node name="Preview" parent="." index="6"]
map_path = NodePath("../map")
