[gd_scene load_steps=4 format=2]

[ext_resource path="res://bgm/BGM.gd" type="Script" id=1]
[ext_resource path="res://assets/bgm/nothingbgm.ogg" type="AudioStream" id=2]
[ext_resource path="res://assets/bgm/nothingintrobgm.ogg" type="AudioStream" id=3]

[node name="BGM" type="Node"]
script = ExtResource( 1 )

[node name="StageBGM" type="AudioStreamPlayer" parent="."]
stream = ExtResource( 2 )
bus = "BGM"

[node name="IntroBGM" type="AudioStreamPlayer" parent="."]
stream = ExtResource( 3 )
volume_db = -6.0
bus = "BGM"

[node name="FadeoutTimer" type="Timer" parent="."]
one_shot = true
